%YAML 1.1
%TAG !u! tag:unity3d.com,2011:
--- !u!1 &2123731565814334488
GameObject:
  m_ObjectHideFlags: 0
  m_CorrespondingSourceObject: {fileID: 0}
  m_PrefabInstance: {fileID: 0}
  m_PrefabAsset: {fileID: 0}
  serializedVersion: 6
  m_Component:
  - component: {fileID: 7211684936167137910}
  - component: {fileID: 5908588291875016348}
  m_Layer: 31
  m_Name: BuildingInterior
  m_TagString: Untagged
  m_Icon: {fileID: 0}
  m_NavMeshLayer: 0
  m_StaticEditorFlags: 0
  m_IsActive: 1
--- !u!4 &7211684936167137910
Transform:
  m_ObjectHideFlags: 0
  m_CorrespondingSourceObject: {fileID: 0}
  m_PrefabInstance: {fileID: 0}
  m_PrefabAsset: {fileID: 0}
  m_GameObject: {fileID: 2123731565814334488}
  m_LocalRotation: {x: 0, y: 0, z: 0, w: 1}
  m_LocalPosition: {x: 0, y: 0, z: 0}
  m_LocalScale: {x: 1, y: 1, z: 1}
  m_Children:
  - {fileID: 5267218665588610601}
  m_Father: {fileID: 0}
  m_RootOrder: 0
  m_LocalEulerAnglesHint: {x: 0, y: 0, z: 0}
--- !u!156049354 &5908588291875016348
Grid:
  m_ObjectHideFlags: 0
  m_CorrespondingSourceObject: {fileID: 0}
  m_PrefabInstance: {fileID: 0}
  m_PrefabAsset: {fileID: 0}
  m_GameObject: {fileID: 2123731565814334488}
  m_Enabled: 1
  m_CellSize: {x: 1, y: 1, z: 0}
  m_CellGap: {x: 0, y: 0, z: 0}
  m_CellLayout: 0
  m_CellSwizzle: 0
--- !u!1 &6453260119943104566
GameObject:
  m_ObjectHideFlags: 0
  m_CorrespondingSourceObject: {fileID: 0}
  m_PrefabInstance: {fileID: 0}
  m_PrefabAsset: {fileID: 0}
  serializedVersion: 6
  m_Component:
  - component: {fileID: 5267218665588610601}
  - component: {fileID: 88945894522827064}
  - component: {fileID: 5840678898355814549}
  m_Layer: 31
  m_Name: Layer1
  m_TagString: Untagged
  m_Icon: {fileID: 0}
  m_NavMeshLayer: 0
  m_StaticEditorFlags: 0
  m_IsActive: 1
--- !u!4 &5267218665588610601
Transform:
  m_ObjectHideFlags: 0
  m_CorrespondingSourceObject: {fileID: 0}
  m_PrefabInstance: {fileID: 0}
  m_PrefabAsset: {fileID: 0}
  m_GameObject: {fileID: 6453260119943104566}
  m_LocalRotation: {x: -0, y: -0, z: -0, w: 1}
  m_LocalPosition: {x: 0, y: 0, z: 0}
  m_LocalScale: {x: 1, y: 1, z: 1}
  m_Children: []
  m_Father: {fileID: 7211684936167137910}
  m_RootOrder: 0
  m_LocalEulerAnglesHint: {x: 0, y: 0, z: 0}
--- !u!1839735485 &88945894522827064
Tilemap:
  m_ObjectHideFlags: 0
  m_CorrespondingSourceObject: {fileID: 0}
  m_PrefabInstance: {fileID: 0}
  m_PrefabAsset: {fileID: 0}
  m_GameObject: {fileID: 6453260119943104566}
  m_Enabled: 1
  m_Tiles:
  - first: {x: -1, y: -8, z: 0}
    second:
      m_TileIndex: 111
      m_TileSpriteIndex: 148
      m_TileMatrixIndex: 0
      m_TileColorIndex: 0
      m_ObjectToInstantiate: {fileID: 0}
      m_TileFlags: 1
      m_ColliderType: 1
  - first: {x: 0, y: -8, z: 0}
    second:
      m_TileIndex: 112
      m_TileSpriteIndex: 149
      m_TileMatrixIndex: 0
      m_TileColorIndex: 0
      m_ObjectToInstantiate: {fileID: 0}
      m_TileFlags: 1
      m_ColliderType: 1
  - first: {x: 1, y: -8, z: 0}
    second:
      m_TileIndex: 113
      m_TileSpriteIndex: 150
      m_TileMatrixIndex: 0
      m_TileColorIndex: 0
      m_ObjectToInstantiate: {fileID: 0}
      m_TileFlags: 1
      m_ColliderType: 1
  - first: {x: 2, y: -8, z: 0}
    second:
      m_TileIndex: 114
      m_TileSpriteIndex: 151
      m_TileMatrixIndex: 0
      m_TileColorIndex: 0
      m_ObjectToInstantiate: {fileID: 0}
      m_TileFlags: 1
      m_ColliderType: 1
  - first: {x: 3, y: -8, z: 0}
    second:
      m_TileIndex: 115
      m_TileSpriteIndex: 152
      m_TileMatrixIndex: 0
      m_TileColorIndex: 0
      m_ObjectToInstantiate: {fileID: 0}
      m_TileFlags: 1
      m_ColliderType: 1
  - first: {x: 4, y: -8, z: 0}
    second:
      m_TileIndex: 116
      m_TileSpriteIndex: 153
      m_TileMatrixIndex: 0
      m_TileColorIndex: 0
      m_ObjectToInstantiate: {fileID: 0}
      m_TileFlags: 1
      m_ColliderType: 1
  - first: {x: 5, y: -8, z: 0}
    second:
      m_TileIndex: 117
      m_TileSpriteIndex: 154
      m_TileMatrixIndex: 0
      m_TileColorIndex: 0
      m_ObjectToInstantiate: {fileID: 0}
      m_TileFlags: 1
      m_ColliderType: 1
  - first: {x: 6, y: -8, z: 0}
    second:
      m_TileIndex: 118
      m_TileSpriteIndex: 155
      m_TileMatrixIndex: 0
      m_TileColorIndex: 0
      m_ObjectToInstantiate: {fileID: 0}
      m_TileFlags: 1
      m_ColliderType: 1
  - first: {x: 7, y: -8, z: 0}
    second:
      m_TileIndex: 119
      m_TileSpriteIndex: 156
      m_TileMatrixIndex: 0
      m_TileColorIndex: 0
      m_ObjectToInstantiate: {fileID: 0}
      m_TileFlags: 1
      m_ColliderType: 1
  - first: {x: 8, y: -8, z: 0}
    second:
      m_TileIndex: 150
      m_TileSpriteIndex: 157
      m_TileMatrixIndex: 0
      m_TileColorIndex: 0
      m_ObjectToInstantiate: {fileID: 0}
      m_TileFlags: 1
      m_ColliderType: 1
  - first: {x: 9, y: -8, z: 0}
    second:
      m_TileIndex: 151
      m_TileSpriteIndex: 158
      m_TileMatrixIndex: 0
      m_TileColorIndex: 0
      m_ObjectToInstantiate: {fileID: 0}
      m_TileFlags: 1
      m_ColliderType: 1
  - first: {x: 10, y: -8, z: 0}
    second:
      m_TileIndex: 152
      m_TileSpriteIndex: 159
      m_TileMatrixIndex: 0
      m_TileColorIndex: 0
      m_ObjectToInstantiate: {fileID: 0}
      m_TileFlags: 1
      m_ColliderType: 1
  - first: {x: 11, y: -8, z: 0}
    second:
      m_TileIndex: 120
      m_TileSpriteIndex: 160
      m_TileMatrixIndex: 0
      m_TileColorIndex: 0
      m_ObjectToInstantiate: {fileID: 0}
      m_TileFlags: 1
      m_ColliderType: 1
  - first: {x: 12, y: -8, z: 0}
    second:
      m_TileIndex: 121
      m_TileSpriteIndex: 161
      m_TileMatrixIndex: 0
      m_TileColorIndex: 0
      m_ObjectToInstantiate: {fileID: 0}
      m_TileFlags: 1
      m_ColliderType: 1
  - first: {x: 13, y: -8, z: 0}
    second:
      m_TileIndex: 122
      m_TileSpriteIndex: 162
      m_TileMatrixIndex: 0
      m_TileColorIndex: 0
      m_ObjectToInstantiate: {fileID: 0}
      m_TileFlags: 1
      m_ColliderType: 1
  - first: {x: 14, y: -8, z: 0}
    second:
      m_TileIndex: 123
      m_TileSpriteIndex: 163
      m_TileMatrixIndex: 0
      m_TileColorIndex: 0
      m_ObjectToInstantiate: {fileID: 0}
      m_TileFlags: 1
      m_ColliderType: 1
  - first: {x: 15, y: -8, z: 0}
    second:
      m_TileIndex: 124
      m_TileSpriteIndex: 164
      m_TileMatrixIndex: 0
      m_TileColorIndex: 0
      m_ObjectToInstantiate: {fileID: 0}
      m_TileFlags: 1
      m_ColliderType: 1
  - first: {x: 16, y: -8, z: 0}
    second:
      m_TileIndex: 125
      m_TileSpriteIndex: 165
      m_TileMatrixIndex: 0
      m_TileColorIndex: 0
      m_ObjectToInstantiate: {fileID: 0}
      m_TileFlags: 1
      m_ColliderType: 1
  - first: {x: 17, y: -8, z: 0}
    second:
      m_TileIndex: 126
      m_TileSpriteIndex: 166
      m_TileMatrixIndex: 0
      m_TileColorIndex: 0
      m_ObjectToInstantiate: {fileID: 0}
      m_TileFlags: 1
      m_ColliderType: 1
  - first: {x: 18, y: -8, z: 0}
    second:
      m_TileIndex: 127
      m_TileSpriteIndex: 167
      m_TileMatrixIndex: 0
      m_TileColorIndex: 0
      m_ObjectToInstantiate: {fileID: 0}
      m_TileFlags: 1
      m_ColliderType: 1
  - first: {x: 19, y: -8, z: 0}
    second:
      m_TileIndex: 128
      m_TileSpriteIndex: 168
      m_TileMatrixIndex: 0
      m_TileColorIndex: 0
      m_ObjectToInstantiate: {fileID: 0}
      m_TileFlags: 1
      m_ColliderType: 1
  - first: {x: 20, y: -8, z: 0}
    second:
      m_TileIndex: 129
      m_TileSpriteIndex: 169
      m_TileMatrixIndex: 0
      m_TileColorIndex: 0
      m_ObjectToInstantiate: {fileID: 0}
      m_TileFlags: 1
      m_ColliderType: 1
  - first: {x: 21, y: -8, z: 0}
    second:
      m_TileIndex: 130
      m_TileSpriteIndex: 170
      m_TileMatrixIndex: 0
      m_TileColorIndex: 0
      m_ObjectToInstantiate: {fileID: 0}
      m_TileFlags: 1
      m_ColliderType: 1
  - first: {x: 22, y: -8, z: 0}
    second:
      m_TileIndex: 131
      m_TileSpriteIndex: 171
      m_TileMatrixIndex: 0
      m_TileColorIndex: 0
      m_ObjectToInstantiate: {fileID: 0}
      m_TileFlags: 1
      m_ColliderType: 1
  - first: {x: 24, y: -8, z: 0}
    second:
      m_TileIndex: 132
      m_TileSpriteIndex: 172
      m_TileMatrixIndex: 0
      m_TileColorIndex: 0
      m_ObjectToInstantiate: {fileID: 0}
      m_TileFlags: 1
      m_ColliderType: 1
  - first: {x: 25, y: -8, z: 0}
    second:
      m_TileIndex: 133
      m_TileSpriteIndex: 173
      m_TileMatrixIndex: 0
      m_TileColorIndex: 0
      m_ObjectToInstantiate: {fileID: 0}
      m_TileFlags: 1
      m_ColliderType: 1
  - first: {x: 26, y: -8, z: 0}
    second:
      m_TileIndex: 134
      m_TileSpriteIndex: 174
      m_TileMatrixIndex: 0
      m_TileColorIndex: 0
      m_ObjectToInstantiate: {fileID: 0}
      m_TileFlags: 1
      m_ColliderType: 1
  - first: {x: 27, y: -8, z: 0}
    second:
      m_TileIndex: 135
      m_TileSpriteIndex: 175
      m_TileMatrixIndex: 0
      m_TileColorIndex: 0
      m_ObjectToInstantiate: {fileID: 0}
      m_TileFlags: 1
      m_ColliderType: 1
  - first: {x: 28, y: -8, z: 0}
    second:
      m_TileIndex: 136
      m_TileSpriteIndex: 176
      m_TileMatrixIndex: 0
      m_TileColorIndex: 0
      m_ObjectToInstantiate: {fileID: 0}
      m_TileFlags: 1
      m_ColliderType: 1
  - first: {x: 29, y: -8, z: 0}
    second:
      m_TileIndex: 137
      m_TileSpriteIndex: 177
      m_TileMatrixIndex: 0
      m_TileColorIndex: 0
      m_ObjectToInstantiate: {fileID: 0}
      m_TileFlags: 1
      m_ColliderType: 1
  - first: {x: -1, y: -7, z: 0}
    second:
      m_TileIndex: 87
      m_TileSpriteIndex: 121
      m_TileMatrixIndex: 0
      m_TileColorIndex: 0
      m_ObjectToInstantiate: {fileID: 0}
      m_TileFlags: 1
      m_ColliderType: 1
  - first: {x: 0, y: -7, z: 0}
    second:
      m_TileIndex: 88
      m_TileSpriteIndex: 122
      m_TileMatrixIndex: 0
      m_TileColorIndex: 0
      m_ObjectToInstantiate: {fileID: 0}
      m_TileFlags: 1
      m_ColliderType: 1
  - first: {x: 1, y: -7, z: 0}
    second:
      m_TileIndex: 89
      m_TileSpriteIndex: 123
      m_TileMatrixIndex: 0
      m_TileColorIndex: 0
      m_ObjectToInstantiate: {fileID: 0}
      m_TileFlags: 1
      m_ColliderType: 1
  - first: {x: 2, y: -7, z: 0}
    second:
      m_TileIndex: 90
      m_TileSpriteIndex: 124
      m_TileMatrixIndex: 0
      m_TileColorIndex: 0
      m_ObjectToInstantiate: {fileID: 0}
      m_TileFlags: 1
      m_ColliderType: 1
  - first: {x: 3, y: -7, z: 0}
    second:
      m_TileIndex: 91
      m_TileSpriteIndex: 125
      m_TileMatrixIndex: 0
      m_TileColorIndex: 0
      m_ObjectToInstantiate: {fileID: 0}
      m_TileFlags: 1
      m_ColliderType: 1
  - first: {x: 4, y: -7, z: 0}
    second:
      m_TileIndex: 92
      m_TileSpriteIndex: 126
      m_TileMatrixIndex: 0
      m_TileColorIndex: 0
      m_ObjectToInstantiate: {fileID: 0}
      m_TileFlags: 1
      m_ColliderType: 1
  - first: {x: 5, y: -7, z: 0}
    second:
      m_TileIndex: 93
      m_TileSpriteIndex: 127
      m_TileMatrixIndex: 0
      m_TileColorIndex: 0
      m_ObjectToInstantiate: {fileID: 0}
      m_TileFlags: 1
      m_ColliderType: 1
  - first: {x: 6, y: -7, z: 0}
    second:
      m_TileIndex: 94
      m_TileSpriteIndex: 128
      m_TileMatrixIndex: 0
      m_TileColorIndex: 0
      m_ObjectToInstantiate: {fileID: 0}
      m_TileFlags: 1
      m_ColliderType: 1
  - first: {x: 7, y: -7, z: 0}
    second:
      m_TileIndex: 95
      m_TileSpriteIndex: 129
      m_TileMatrixIndex: 0
      m_TileColorIndex: 0
      m_ObjectToInstantiate: {fileID: 0}
      m_TileFlags: 1
      m_ColliderType: 1
  - first: {x: 8, y: -7, z: 0}
    second:
      m_TileIndex: 147
      m_TileSpriteIndex: 130
      m_TileMatrixIndex: 0
      m_TileColorIndex: 0
      m_ObjectToInstantiate: {fileID: 0}
      m_TileFlags: 1
      m_ColliderType: 1
  - first: {x: 9, y: -7, z: 0}
    second:
      m_TileIndex: 148
      m_TileSpriteIndex: 131
      m_TileMatrixIndex: 0
      m_TileColorIndex: 0
      m_ObjectToInstantiate: {fileID: 0}
      m_TileFlags: 1
      m_ColliderType: 1
  - first: {x: 10, y: -7, z: 0}
    second:
      m_TileIndex: 149
      m_TileSpriteIndex: 132
      m_TileMatrixIndex: 0
      m_TileColorIndex: 0
      m_ObjectToInstantiate: {fileID: 0}
      m_TileFlags: 1
      m_ColliderType: 1
  - first: {x: 11, y: -7, z: 0}
    second:
      m_TileIndex: 96
      m_TileSpriteIndex: 133
      m_TileMatrixIndex: 0
      m_TileColorIndex: 0
      m_ObjectToInstantiate: {fileID: 0}
      m_TileFlags: 1
      m_ColliderType: 1
  - first: {x: 13, y: -7, z: 0}
    second:
      m_TileIndex: 97
      m_TileSpriteIndex: 134
      m_TileMatrixIndex: 0
      m_TileColorIndex: 0
      m_ObjectToInstantiate: {fileID: 0}
      m_TileFlags: 1
      m_ColliderType: 1
  - first: {x: 14, y: -7, z: 0}
    second:
      m_TileIndex: 98
      m_TileSpriteIndex: 135
      m_TileMatrixIndex: 0
      m_TileColorIndex: 0
      m_ObjectToInstantiate: {fileID: 0}
      m_TileFlags: 1
      m_ColliderType: 1
  - first: {x: 15, y: -7, z: 0}
    second:
      m_TileIndex: 99
      m_TileSpriteIndex: 136
      m_TileMatrixIndex: 0
      m_TileColorIndex: 0
      m_ObjectToInstantiate: {fileID: 0}
      m_TileFlags: 1
      m_ColliderType: 1
  - first: {x: 16, y: -7, z: 0}
    second:
      m_TileIndex: 100
      m_TileSpriteIndex: 137
      m_TileMatrixIndex: 0
      m_TileColorIndex: 0
      m_ObjectToInstantiate: {fileID: 0}
      m_TileFlags: 1
      m_ColliderType: 1
  - first: {x: 17, y: -7, z: 0}
    second:
      m_TileIndex: 101
      m_TileSpriteIndex: 138
      m_TileMatrixIndex: 0
      m_TileColorIndex: 0
      m_ObjectToInstantiate: {fileID: 0}
      m_TileFlags: 1
      m_ColliderType: 1
  - first: {x: 19, y: -7, z: 0}
    second:
      m_TileIndex: 102
      m_TileSpriteIndex: 139
      m_TileMatrixIndex: 0
      m_TileColorIndex: 0
      m_ObjectToInstantiate: {fileID: 0}
      m_TileFlags: 1
      m_ColliderType: 1
  - first: {x: 20, y: -7, z: 0}
    second:
      m_TileIndex: 103
      m_TileSpriteIndex: 140
      m_TileMatrixIndex: 0
      m_TileColorIndex: 0
      m_ObjectToInstantiate: {fileID: 0}
      m_TileFlags: 1
      m_ColliderType: 1
  - first: {x: 21, y: -7, z: 0}
    second:
      m_TileIndex: 104
      m_TileSpriteIndex: 141
      m_TileMatrixIndex: 0
      m_TileColorIndex: 0
      m_ObjectToInstantiate: {fileID: 0}
      m_TileFlags: 1
      m_ColliderType: 1
  - first: {x: 22, y: -7, z: 0}
    second:
      m_TileIndex: 105
      m_TileSpriteIndex: 142
      m_TileMatrixIndex: 0
      m_TileColorIndex: 0
      m_ObjectToInstantiate: {fileID: 0}
      m_TileFlags: 1
      m_ColliderType: 1
  - first: {x: 24, y: -7, z: 0}
    second:
      m_TileIndex: 106
      m_TileSpriteIndex: 143
      m_TileMatrixIndex: 0
      m_TileColorIndex: 0
      m_ObjectToInstantiate: {fileID: 0}
      m_TileFlags: 1
      m_ColliderType: 1
  - first: {x: 25, y: -7, z: 0}
    second:
      m_TileIndex: 107
      m_TileSpriteIndex: 144
      m_TileMatrixIndex: 0
      m_TileColorIndex: 0
      m_ObjectToInstantiate: {fileID: 0}
      m_TileFlags: 1
      m_ColliderType: 1
  - first: {x: 26, y: -7, z: 0}
    second:
      m_TileIndex: 108
      m_TileSpriteIndex: 145
      m_TileMatrixIndex: 0
      m_TileColorIndex: 0
      m_ObjectToInstantiate: {fileID: 0}
      m_TileFlags: 1
      m_ColliderType: 1
  - first: {x: 27, y: -7, z: 0}
    second:
      m_TileIndex: 109
      m_TileSpriteIndex: 146
      m_TileMatrixIndex: 0
      m_TileColorIndex: 0
      m_ObjectToInstantiate: {fileID: 0}
      m_TileFlags: 1
      m_ColliderType: 1
  - first: {x: 29, y: -7, z: 0}
    second:
      m_TileIndex: 110
      m_TileSpriteIndex: 147
      m_TileMatrixIndex: 0
      m_TileColorIndex: 0
      m_ObjectToInstantiate: {fileID: 0}
      m_TileFlags: 1
      m_ColliderType: 1
  - first: {x: -1, y: -6, z: 0}
    second:
      m_TileIndex: 67
      m_TileSpriteIndex: 100
      m_TileMatrixIndex: 0
      m_TileColorIndex: 0
      m_ObjectToInstantiate: {fileID: 0}
      m_TileFlags: 1
      m_ColliderType: 1
  - first: {x: 0, y: -6, z: 0}
    second:
      m_TileIndex: 68
      m_TileSpriteIndex: 101
      m_TileMatrixIndex: 0
      m_TileColorIndex: 0
      m_ObjectToInstantiate: {fileID: 0}
      m_TileFlags: 1
      m_ColliderType: 1
  - first: {x: 1, y: -6, z: 0}
    second:
      m_TileIndex: 69
      m_TileSpriteIndex: 102
      m_TileMatrixIndex: 0
      m_TileColorIndex: 0
      m_ObjectToInstantiate: {fileID: 0}
      m_TileFlags: 1
      m_ColliderType: 1
  - first: {x: 2, y: -6, z: 0}
    second:
      m_TileIndex: 70
      m_TileSpriteIndex: 103
      m_TileMatrixIndex: 0
      m_TileColorIndex: 0
      m_ObjectToInstantiate: {fileID: 0}
      m_TileFlags: 1
      m_ColliderType: 1
  - first: {x: 3, y: -6, z: 0}
    second:
      m_TileIndex: 71
      m_TileSpriteIndex: 104
      m_TileMatrixIndex: 0
      m_TileColorIndex: 0
      m_ObjectToInstantiate: {fileID: 0}
      m_TileFlags: 1
      m_ColliderType: 1
  - first: {x: 4, y: -6, z: 0}
    second:
      m_TileIndex: 72
      m_TileSpriteIndex: 105
      m_TileMatrixIndex: 0
      m_TileColorIndex: 0
      m_ObjectToInstantiate: {fileID: 0}
      m_TileFlags: 1
      m_ColliderType: 1
  - first: {x: 8, y: -6, z: 0}
    second:
      m_TileIndex: 73
      m_TileSpriteIndex: 106
      m_TileMatrixIndex: 0
      m_TileColorIndex: 0
      m_ObjectToInstantiate: {fileID: 0}
      m_TileFlags: 1
      m_ColliderType: 1
  - first: {x: 9, y: -6, z: 0}
    second:
      m_TileIndex: 74
      m_TileSpriteIndex: 107
      m_TileMatrixIndex: 0
      m_TileColorIndex: 0
      m_ObjectToInstantiate: {fileID: 0}
      m_TileFlags: 1
      m_ColliderType: 1
  - first: {x: 14, y: -6, z: 0}
    second:
      m_TileIndex: 177
      m_TileSpriteIndex: 108
      m_TileMatrixIndex: 0
      m_TileColorIndex: 0
      m_ObjectToInstantiate: {fileID: 0}
      m_TileFlags: 1
      m_ColliderType: 1
  - first: {x: 15, y: -6, z: 0}
    second:
      m_TileIndex: 75
      m_TileSpriteIndex: 109
      m_TileMatrixIndex: 0
      m_TileColorIndex: 0
      m_ObjectToInstantiate: {fileID: 0}
      m_TileFlags: 1
      m_ColliderType: 1
  - first: {x: 16, y: -6, z: 0}
    second:
      m_TileIndex: 76
      m_TileSpriteIndex: 110
      m_TileMatrixIndex: 0
      m_TileColorIndex: 0
      m_ObjectToInstantiate: {fileID: 0}
      m_TileFlags: 1
      m_ColliderType: 1
  - first: {x: 17, y: -6, z: 0}
    second:
      m_TileIndex: 77
      m_TileSpriteIndex: 111
      m_TileMatrixIndex: 0
      m_TileColorIndex: 0
      m_ObjectToInstantiate: {fileID: 0}
      m_TileFlags: 1
      m_ColliderType: 1
  - first: {x: 21, y: -6, z: 0}
    second:
      m_TileIndex: 78
      m_TileSpriteIndex: 112
      m_TileMatrixIndex: 0
      m_TileColorIndex: 0
      m_ObjectToInstantiate: {fileID: 0}
      m_TileFlags: 1
      m_ColliderType: 1
  - first: {x: 22, y: -6, z: 0}
    second:
      m_TileIndex: 79
      m_TileSpriteIndex: 113
      m_TileMatrixIndex: 0
      m_TileColorIndex: 0
      m_ObjectToInstantiate: {fileID: 0}
      m_TileFlags: 1
      m_ColliderType: 1
  - first: {x: 23, y: -6, z: 0}
    second:
      m_TileIndex: 80
      m_TileSpriteIndex: 114
      m_TileMatrixIndex: 0
      m_TileColorIndex: 0
      m_ObjectToInstantiate: {fileID: 0}
      m_TileFlags: 1
      m_ColliderType: 1
  - first: {x: 24, y: -6, z: 0}
    second:
      m_TileIndex: 81
      m_TileSpriteIndex: 115
      m_TileMatrixIndex: 0
      m_TileColorIndex: 0
      m_ObjectToInstantiate: {fileID: 0}
      m_TileFlags: 1
      m_ColliderType: 1
  - first: {x: 25, y: -6, z: 0}
    second:
      m_TileIndex: 82
      m_TileSpriteIndex: 116
      m_TileMatrixIndex: 0
      m_TileColorIndex: 0
      m_ObjectToInstantiate: {fileID: 0}
      m_TileFlags: 1
      m_ColliderType: 1
  - first: {x: 26, y: -6, z: 0}
    second:
      m_TileIndex: 83
      m_TileSpriteIndex: 117
      m_TileMatrixIndex: 0
      m_TileColorIndex: 0
      m_ObjectToInstantiate: {fileID: 0}
      m_TileFlags: 1
      m_ColliderType: 1
  - first: {x: 27, y: -6, z: 0}
    second:
      m_TileIndex: 84
      m_TileSpriteIndex: 118
      m_TileMatrixIndex: 0
      m_TileColorIndex: 0
      m_ObjectToInstantiate: {fileID: 0}
      m_TileFlags: 1
      m_ColliderType: 1
  - first: {x: 29, y: -6, z: 0}
    second:
      m_TileIndex: 85
      m_TileSpriteIndex: 119
      m_TileMatrixIndex: 0
      m_TileColorIndex: 0
      m_ObjectToInstantiate: {fileID: 0}
      m_TileFlags: 1
      m_ColliderType: 1
  - first: {x: 30, y: -6, z: 0}
    second:
      m_TileIndex: 86
      m_TileSpriteIndex: 120
      m_TileMatrixIndex: 0
      m_TileColorIndex: 0
      m_ObjectToInstantiate: {fileID: 0}
      m_TileFlags: 1
      m_ColliderType: 1
  - first: {x: -1, y: -5, z: 0}
    second:
      m_TileIndex: 51
      m_TileSpriteIndex: 84
      m_TileMatrixIndex: 0
      m_TileColorIndex: 0
      m_ObjectToInstantiate: {fileID: 0}
      m_TileFlags: 1
      m_ColliderType: 1
  - first: {x: 0, y: -5, z: 0}
    second:
      m_TileIndex: 52
      m_TileSpriteIndex: 85
      m_TileMatrixIndex: 0
      m_TileColorIndex: 0
      m_ObjectToInstantiate: {fileID: 0}
      m_TileFlags: 1
      m_ColliderType: 1
  - first: {x: 1, y: -5, z: 0}
    second:
      m_TileIndex: 53
      m_TileSpriteIndex: 86
      m_TileMatrixIndex: 0
      m_TileColorIndex: 0
      m_ObjectToInstantiate: {fileID: 0}
      m_TileFlags: 1
      m_ColliderType: 1
  - first: {x: 2, y: -5, z: 0}
    second:
      m_TileIndex: 54
      m_TileSpriteIndex: 87
      m_TileMatrixIndex: 0
      m_TileColorIndex: 0
      m_ObjectToInstantiate: {fileID: 0}
      m_TileFlags: 1
      m_ColliderType: 1
  - first: {x: 3, y: -5, z: 0}
    second:
      m_TileIndex: 55
      m_TileSpriteIndex: 88
      m_TileMatrixIndex: 0
      m_TileColorIndex: 0
      m_ObjectToInstantiate: {fileID: 0}
      m_TileFlags: 1
      m_ColliderType: 1
  - first: {x: 4, y: -5, z: 0}
    second:
      m_TileIndex: 56
      m_TileSpriteIndex: 89
      m_TileMatrixIndex: 0
      m_TileColorIndex: 0
      m_ObjectToInstantiate: {fileID: 0}
      m_TileFlags: 1
      m_ColliderType: 1
  - first: {x: 5, y: -5, z: 0}
    second:
      m_TileIndex: 57
      m_TileSpriteIndex: 90
      m_TileMatrixIndex: 0
      m_TileColorIndex: 0
      m_ObjectToInstantiate: {fileID: 0}
      m_TileFlags: 1
      m_ColliderType: 1
  - first: {x: 6, y: -5, z: 0}
    second:
      m_TileIndex: 58
      m_TileSpriteIndex: 91
      m_TileMatrixIndex: 0
      m_TileColorIndex: 0
      m_ObjectToInstantiate: {fileID: 0}
      m_TileFlags: 1
      m_ColliderType: 1
  - first: {x: 7, y: -5, z: 0}
    second:
      m_TileIndex: 59
      m_TileSpriteIndex: 92
      m_TileMatrixIndex: 0
      m_TileColorIndex: 0
      m_ObjectToInstantiate: {fileID: 0}
      m_TileFlags: 1
      m_ColliderType: 1
  - first: {x: 8, y: -5, z: 0}
    second:
      m_TileIndex: 60
      m_TileSpriteIndex: 93
      m_TileMatrixIndex: 0
      m_TileColorIndex: 0
      m_ObjectToInstantiate: {fileID: 0}
      m_TileFlags: 1
      m_ColliderType: 1
  - first: {x: 9, y: -5, z: 0}
    second:
      m_TileIndex: 61
      m_TileSpriteIndex: 94
      m_TileMatrixIndex: 0
      m_TileColorIndex: 0
      m_ObjectToInstantiate: {fileID: 0}
      m_TileFlags: 1
      m_ColliderType: 1
  - first: {x: 10, y: -5, z: 0}
    second:
      m_TileIndex: 62
      m_TileSpriteIndex: 95
      m_TileMatrixIndex: 0
      m_TileColorIndex: 0
      m_ObjectToInstantiate: {fileID: 0}
      m_TileFlags: 1
      m_ColliderType: 1
  - first: {x: 17, y: -5, z: 0}
    second:
      m_TileIndex: 63
      m_TileSpriteIndex: 96
      m_TileMatrixIndex: 0
      m_TileColorIndex: 0
      m_ObjectToInstantiate: {fileID: 0}
      m_TileFlags: 1
      m_ColliderType: 1
  - first: {x: 19, y: -5, z: 0}
    second:
      m_TileIndex: 64
      m_TileSpriteIndex: 97
      m_TileMatrixIndex: 0
      m_TileColorIndex: 0
      m_ObjectToInstantiate: {fileID: 0}
      m_TileFlags: 1
      m_ColliderType: 1
  - first: {x: 20, y: -5, z: 0}
    second:
      m_TileIndex: 65
      m_TileSpriteIndex: 98
      m_TileMatrixIndex: 0
      m_TileColorIndex: 0
      m_ObjectToInstantiate: {fileID: 0}
      m_TileFlags: 1
      m_ColliderType: 1
  - first: {x: 21, y: -5, z: 0}
    second:
      m_TileIndex: 66
      m_TileSpriteIndex: 99
      m_TileMatrixIndex: 0
      m_TileColorIndex: 0
      m_ObjectToInstantiate: {fileID: 0}
      m_TileFlags: 1
      m_ColliderType: 1
  - first: {x: -1, y: -4, z: 0}
    second:
      m_TileIndex: 33
      m_TileSpriteIndex: 66
      m_TileMatrixIndex: 0
      m_TileColorIndex: 0
      m_ObjectToInstantiate: {fileID: 0}
      m_TileFlags: 1
      m_ColliderType: 1
  - first: {x: 0, y: -4, z: 0}
    second:
      m_TileIndex: 34
      m_TileSpriteIndex: 67
      m_TileMatrixIndex: 0
      m_TileColorIndex: 0
      m_ObjectToInstantiate: {fileID: 0}
      m_TileFlags: 1
      m_ColliderType: 1
  - first: {x: 1, y: -4, z: 0}
    second:
      m_TileIndex: 35
      m_TileSpriteIndex: 68
      m_TileMatrixIndex: 0
      m_TileColorIndex: 0
      m_ObjectToInstantiate: {fileID: 0}
      m_TileFlags: 1
      m_ColliderType: 1
  - first: {x: 2, y: -4, z: 0}
    second:
      m_TileIndex: 36
      m_TileSpriteIndex: 69
      m_TileMatrixIndex: 0
      m_TileColorIndex: 0
      m_ObjectToInstantiate: {fileID: 0}
      m_TileFlags: 1
      m_ColliderType: 1
  - first: {x: 3, y: -4, z: 0}
    second:
      m_TileIndex: 37
      m_TileSpriteIndex: 70
      m_TileMatrixIndex: 0
      m_TileColorIndex: 0
      m_ObjectToInstantiate: {fileID: 0}
      m_TileFlags: 1
      m_ColliderType: 1
  - first: {x: 4, y: -4, z: 0}
    second:
      m_TileIndex: 38
      m_TileSpriteIndex: 71
      m_TileMatrixIndex: 0
      m_TileColorIndex: 0
      m_ObjectToInstantiate: {fileID: 0}
      m_TileFlags: 1
      m_ColliderType: 1
  - first: {x: 8, y: -4, z: 0}
    second:
      m_TileIndex: 39
      m_TileSpriteIndex: 72
      m_TileMatrixIndex: 0
      m_TileColorIndex: 0
      m_ObjectToInstantiate: {fileID: 0}
      m_TileFlags: 1
      m_ColliderType: 1
  - first: {x: 9, y: -4, z: 0}
    second:
      m_TileIndex: 40
      m_TileSpriteIndex: 73
      m_TileMatrixIndex: 0
      m_TileColorIndex: 0
      m_ObjectToInstantiate: {fileID: 0}
      m_TileFlags: 1
      m_ColliderType: 1
  - first: {x: 10, y: -4, z: 0}
    second:
      m_TileIndex: 41
      m_TileSpriteIndex: 74
      m_TileMatrixIndex: 0
      m_TileColorIndex: 0
      m_ObjectToInstantiate: {fileID: 0}
      m_TileFlags: 1
      m_ColliderType: 1
  - first: {x: 11, y: -4, z: 0}
    second:
      m_TileIndex: 42
      m_TileSpriteIndex: 75
      m_TileMatrixIndex: 0
      m_TileColorIndex: 0
      m_ObjectToInstantiate: {fileID: 0}
      m_TileFlags: 1
      m_ColliderType: 1
  - first: {x: 16, y: -4, z: 0}
    second:
      m_TileIndex: 43
      m_TileSpriteIndex: 76
      m_TileMatrixIndex: 0
      m_TileColorIndex: 0
      m_ObjectToInstantiate: {fileID: 0}
      m_TileFlags: 1
      m_ColliderType: 1
  - first: {x: 17, y: -4, z: 0}
    second:
      m_TileIndex: 44
      m_TileSpriteIndex: 77
      m_TileMatrixIndex: 0
      m_TileColorIndex: 0
      m_ObjectToInstantiate: {fileID: 0}
      m_TileFlags: 1
      m_ColliderType: 1
  - first: {x: 18, y: -4, z: 0}
    second:
      m_TileIndex: 45
      m_TileSpriteIndex: 78
      m_TileMatrixIndex: 0
      m_TileColorIndex: 0
      m_ObjectToInstantiate: {fileID: 0}
      m_TileFlags: 1
      m_ColliderType: 1
  - first: {x: 22, y: -4, z: 0}
    second:
      m_TileIndex: 46
      m_TileSpriteIndex: 79
      m_TileMatrixIndex: 0
      m_TileColorIndex: 0
      m_ObjectToInstantiate: {fileID: 0}
      m_TileFlags: 1
      m_ColliderType: 1
  - first: {x: 23, y: -4, z: 0}
    second:
      m_TileIndex: 47
      m_TileSpriteIndex: 80
      m_TileMatrixIndex: 0
      m_TileColorIndex: 0
      m_ObjectToInstantiate: {fileID: 0}
      m_TileFlags: 1
      m_ColliderType: 1
  - first: {x: 24, y: -4, z: 0}
    second:
      m_TileIndex: 48
      m_TileSpriteIndex: 81
      m_TileMatrixIndex: 0
      m_TileColorIndex: 0
      m_ObjectToInstantiate: {fileID: 0}
      m_TileFlags: 1
      m_ColliderType: 1
  - first: {x: 26, y: -4, z: 0}
    second:
      m_TileIndex: 49
      m_TileSpriteIndex: 82
      m_TileMatrixIndex: 0
      m_TileColorIndex: 0
      m_ObjectToInstantiate: {fileID: 0}
      m_TileFlags: 1
      m_ColliderType: 1
  - first: {x: 27, y: -4, z: 0}
    second:
      m_TileIndex: 50
      m_TileSpriteIndex: 83
      m_TileMatrixIndex: 0
      m_TileColorIndex: 0
      m_ObjectToInstantiate: {fileID: 0}
      m_TileFlags: 1
      m_ColliderType: 1
  - first: {x: -1, y: -3, z: 0}
    second:
      m_TileIndex: 23
      m_TileSpriteIndex: 56
      m_TileMatrixIndex: 0
      m_TileColorIndex: 0
      m_ObjectToInstantiate: {fileID: 0}
      m_TileFlags: 1
      m_ColliderType: 1
  - first: {x: 0, y: -3, z: 0}
    second:
      m_TileIndex: 24
      m_TileSpriteIndex: 57
      m_TileMatrixIndex: 0
      m_TileColorIndex: 0
      m_ObjectToInstantiate: {fileID: 0}
      m_TileFlags: 1
      m_ColliderType: 1
  - first: {x: 1, y: -3, z: 0}
    second:
      m_TileIndex: 25
      m_TileSpriteIndex: 58
      m_TileMatrixIndex: 0
      m_TileColorIndex: 0
      m_ObjectToInstantiate: {fileID: 0}
      m_TileFlags: 1
      m_ColliderType: 1
  - first: {x: 2, y: -3, z: 0}
    second:
      m_TileIndex: 26
      m_TileSpriteIndex: 59
      m_TileMatrixIndex: 0
      m_TileColorIndex: 0
      m_ObjectToInstantiate: {fileID: 0}
      m_TileFlags: 1
      m_ColliderType: 1
  - first: {x: 3, y: -3, z: 0}
    second:
      m_TileIndex: 27
      m_TileSpriteIndex: 60
      m_TileMatrixIndex: 0
      m_TileColorIndex: 0
      m_ObjectToInstantiate: {fileID: 0}
      m_TileFlags: 1
      m_ColliderType: 1
  - first: {x: 4, y: -3, z: 0}
    second:
      m_TileIndex: 28
      m_TileSpriteIndex: 61
      m_TileMatrixIndex: 0
      m_TileColorIndex: 0
      m_ObjectToInstantiate: {fileID: 0}
      m_TileFlags: 1
      m_ColliderType: 1
  - first: {x: 9, y: -3, z: 0}
    second:
      m_TileIndex: 29
      m_TileSpriteIndex: 62
      m_TileMatrixIndex: 0
      m_TileColorIndex: 0
      m_ObjectToInstantiate: {fileID: 0}
      m_TileFlags: 1
      m_ColliderType: 1
  - first: {x: 10, y: -3, z: 0}
    second:
      m_TileIndex: 30
      m_TileSpriteIndex: 63
      m_TileMatrixIndex: 0
      m_TileColorIndex: 0
      m_ObjectToInstantiate: {fileID: 0}
      m_TileFlags: 1
      m_ColliderType: 1
  - first: {x: 26, y: -3, z: 0}
    second:
      m_TileIndex: 31
      m_TileSpriteIndex: 64
      m_TileMatrixIndex: 0
      m_TileColorIndex: 0
      m_ObjectToInstantiate: {fileID: 0}
      m_TileFlags: 1
      m_ColliderType: 1
  - first: {x: 27, y: -3, z: 0}
    second:
      m_TileIndex: 32
      m_TileSpriteIndex: 65
      m_TileMatrixIndex: 0
      m_TileColorIndex: 0
      m_ObjectToInstantiate: {fileID: 0}
      m_TileFlags: 1
      m_ColliderType: 1
  - first: {x: -1, y: -2, z: 0}
    second:
      m_TileIndex: 14
      m_TileSpriteIndex: 36
      m_TileMatrixIndex: 0
      m_TileColorIndex: 0
      m_ObjectToInstantiate: {fileID: 0}
      m_TileFlags: 1
      m_ColliderType: 1
  - first: {x: 0, y: -2, z: 0}
    second:
      m_TileIndex: 15
      m_TileSpriteIndex: 37
      m_TileMatrixIndex: 0
      m_TileColorIndex: 0
      m_ObjectToInstantiate: {fileID: 0}
      m_TileFlags: 1
      m_ColliderType: 1
  - first: {x: 1, y: -2, z: 0}
    second:
      m_TileIndex: 16
      m_TileSpriteIndex: 38
      m_TileMatrixIndex: 0
      m_TileColorIndex: 0
      m_ObjectToInstantiate: {fileID: 0}
      m_TileFlags: 1
      m_ColliderType: 1
  - first: {x: 5, y: -2, z: 0}
    second:
      m_TileIndex: 17
      m_TileSpriteIndex: 39
      m_TileMatrixIndex: 0
      m_TileColorIndex: 0
      m_ObjectToInstantiate: {fileID: 0}
      m_TileFlags: 1
      m_ColliderType: 1
  - first: {x: 6, y: -2, z: 0}
    second:
      m_TileIndex: 18
      m_TileSpriteIndex: 40
      m_TileMatrixIndex: 0
      m_TileColorIndex: 0
      m_ObjectToInstantiate: {fileID: 0}
      m_TileFlags: 1
      m_ColliderType: 1
  - first: {x: 7, y: -2, z: 0}
    second:
      m_TileIndex: 19
      m_TileSpriteIndex: 41
      m_TileMatrixIndex: 0
      m_TileColorIndex: 0
      m_ObjectToInstantiate: {fileID: 0}
      m_TileFlags: 1
      m_ColliderType: 1
  - first: {x: 8, y: -2, z: 0}
    second:
      m_TileIndex: 20
      m_TileSpriteIndex: 42
      m_TileMatrixIndex: 0
      m_TileColorIndex: 0
      m_ObjectToInstantiate: {fileID: 0}
      m_TileFlags: 1
      m_ColliderType: 1
  - first: {x: 9, y: -2, z: 0}
    second:
      m_TileIndex: 140
      m_TileSpriteIndex: 43
      m_TileMatrixIndex: 0
      m_TileColorIndex: 0
      m_ObjectToInstantiate: {fileID: 0}
      m_TileFlags: 1
      m_ColliderType: 1
  - first: {x: 11, y: -2, z: 0}
    second:
      m_TileIndex: 143
      m_TileSpriteIndex: 44
      m_TileMatrixIndex: 0
      m_TileColorIndex: 0
      m_ObjectToInstantiate: {fileID: 0}
      m_TileFlags: 1
      m_ColliderType: 1
  - first: {x: 12, y: -2, z: 0}
    second:
      m_TileIndex: 146
      m_TileSpriteIndex: 45
      m_TileMatrixIndex: 0
      m_TileColorIndex: 0
      m_ObjectToInstantiate: {fileID: 0}
      m_TileFlags: 1
      m_ColliderType: 1
  - first: {x: 13, y: -2, z: 0}
    second:
      m_TileIndex: 169
      m_TileSpriteIndex: 46
      m_TileMatrixIndex: 0
      m_TileColorIndex: 0
      m_ObjectToInstantiate: {fileID: 0}
      m_TileFlags: 1
      m_ColliderType: 1
  - first: {x: 14, y: -2, z: 0}
    second:
      m_TileIndex: 170
      m_TileSpriteIndex: 47
      m_TileMatrixIndex: 0
      m_TileColorIndex: 0
      m_ObjectToInstantiate: {fileID: 0}
      m_TileFlags: 1
      m_ColliderType: 1
  - first: {x: 16, y: -2, z: 0}
    second:
      m_TileIndex: 171
      m_TileSpriteIndex: 48
      m_TileMatrixIndex: 0
      m_TileColorIndex: 0
      m_ObjectToInstantiate: {fileID: 0}
      m_TileFlags: 1
      m_ColliderType: 1
  - first: {x: 17, y: -2, z: 0}
    second:
      m_TileIndex: 172
      m_TileSpriteIndex: 49
      m_TileMatrixIndex: 0
      m_TileColorIndex: 0
      m_ObjectToInstantiate: {fileID: 0}
      m_TileFlags: 1
      m_ColliderType: 1
  - first: {x: 18, y: -2, z: 0}
    second:
      m_TileIndex: 173
      m_TileSpriteIndex: 50
      m_TileMatrixIndex: 0
      m_TileColorIndex: 0
      m_ObjectToInstantiate: {fileID: 0}
      m_TileFlags: 1
      m_ColliderType: 1
  - first: {x: 19, y: -2, z: 0}
    second:
      m_TileIndex: 174
      m_TileSpriteIndex: 51
      m_TileMatrixIndex: 0
      m_TileColorIndex: 0
      m_ObjectToInstantiate: {fileID: 0}
      m_TileFlags: 1
      m_ColliderType: 1
  - first: {x: 21, y: -2, z: 0}
    second:
      m_TileIndex: 175
      m_TileSpriteIndex: 52
      m_TileMatrixIndex: 0
      m_TileColorIndex: 0
      m_ObjectToInstantiate: {fileID: 0}
      m_TileFlags: 1
      m_ColliderType: 1
  - first: {x: 22, y: -2, z: 0}
    second:
      m_TileIndex: 176
      m_TileSpriteIndex: 53
      m_TileMatrixIndex: 0
      m_TileColorIndex: 0
      m_ObjectToInstantiate: {fileID: 0}
      m_TileFlags: 1
      m_ColliderType: 1
  - first: {x: 26, y: -2, z: 0}
    second:
      m_TileIndex: 21
      m_TileSpriteIndex: 54
      m_TileMatrixIndex: 0
      m_TileColorIndex: 0
      m_ObjectToInstantiate: {fileID: 0}
      m_TileFlags: 1
      m_ColliderType: 1
  - first: {x: 27, y: -2, z: 0}
    second:
      m_TileIndex: 22
      m_TileSpriteIndex: 55
      m_TileMatrixIndex: 0
      m_TileColorIndex: 0
      m_ObjectToInstantiate: {fileID: 0}
      m_TileFlags: 1
      m_ColliderType: 1
  - first: {x: -1, y: -1, z: 0}
    second:
      m_TileIndex: 7
      m_TileSpriteIndex: 18
      m_TileMatrixIndex: 0
      m_TileColorIndex: 0
      m_ObjectToInstantiate: {fileID: 0}
      m_TileFlags: 1
      m_ColliderType: 1
  - first: {x: 0, y: -1, z: 0}
    second:
      m_TileIndex: 8
      m_TileSpriteIndex: 19
      m_TileMatrixIndex: 0
      m_TileColorIndex: 0
      m_ObjectToInstantiate: {fileID: 0}
      m_TileFlags: 1
      m_ColliderType: 1
  - first: {x: 1, y: -1, z: 0}
    second:
      m_TileIndex: 9
      m_TileSpriteIndex: 20
      m_TileMatrixIndex: 0
      m_TileColorIndex: 0
      m_ObjectToInstantiate: {fileID: 0}
      m_TileFlags: 1
      m_ColliderType: 1
  - first: {x: 5, y: -1, z: 0}
    second:
      m_TileIndex: 10
      m_TileSpriteIndex: 21
      m_TileMatrixIndex: 0
      m_TileColorIndex: 0
      m_ObjectToInstantiate: {fileID: 0}
      m_TileFlags: 1
      m_ColliderType: 1
  - first: {x: 6, y: -1, z: 0}
    second:
      m_TileIndex: 11
      m_TileSpriteIndex: 22
      m_TileMatrixIndex: 0
      m_TileColorIndex: 0
      m_ObjectToInstantiate: {fileID: 0}
      m_TileFlags: 1
      m_ColliderType: 1
  - first: {x: 7, y: -1, z: 0}
    second:
      m_TileIndex: 12
      m_TileSpriteIndex: 23
      m_TileMatrixIndex: 0
      m_TileColorIndex: 0
      m_ObjectToInstantiate: {fileID: 0}
      m_TileFlags: 1
      m_ColliderType: 1
  - first: {x: 8, y: -1, z: 0}
    second:
      m_TileIndex: 13
      m_TileSpriteIndex: 24
      m_TileMatrixIndex: 0
      m_TileColorIndex: 0
      m_ObjectToInstantiate: {fileID: 0}
      m_TileFlags: 1
      m_ColliderType: 1
  - first: {x: 9, y: -1, z: 0}
    second:
      m_TileIndex: 139
      m_TileSpriteIndex: 25
      m_TileMatrixIndex: 0
      m_TileColorIndex: 0
      m_ObjectToInstantiate: {fileID: 0}
      m_TileFlags: 1
      m_ColliderType: 1
  - first: {x: 11, y: -1, z: 0}
    second:
      m_TileIndex: 142
      m_TileSpriteIndex: 26
      m_TileMatrixIndex: 0
      m_TileColorIndex: 0
      m_ObjectToInstantiate: {fileID: 0}
      m_TileFlags: 1
      m_ColliderType: 1
  - first: {x: 12, y: -1, z: 0}
    second:
      m_TileIndex: 145
      m_TileSpriteIndex: 27
      m_TileMatrixIndex: 0
      m_TileColorIndex: 0
      m_ObjectToInstantiate: {fileID: 0}
      m_TileFlags: 1
      m_ColliderType: 1
  - first: {x: 13, y: -1, z: 0}
    second:
      m_TileIndex: 161
      m_TileSpriteIndex: 28
      m_TileMatrixIndex: 0
      m_TileColorIndex: 0
      m_ObjectToInstantiate: {fileID: 0}
      m_TileFlags: 1
      m_ColliderType: 1
  - first: {x: 14, y: -1, z: 0}
    second:
      m_TileIndex: 162
      m_TileSpriteIndex: 29
      m_TileMatrixIndex: 0
      m_TileColorIndex: 0
      m_ObjectToInstantiate: {fileID: 0}
      m_TileFlags: 1
      m_ColliderType: 1
  - first: {x: 16, y: -1, z: 0}
    second:
      m_TileIndex: 163
      m_TileSpriteIndex: 30
      m_TileMatrixIndex: 0
      m_TileColorIndex: 0
      m_ObjectToInstantiate: {fileID: 0}
      m_TileFlags: 1
      m_ColliderType: 1
  - first: {x: 17, y: -1, z: 0}
    second:
      m_TileIndex: 164
      m_TileSpriteIndex: 31
      m_TileMatrixIndex: 0
      m_TileColorIndex: 0
      m_ObjectToInstantiate: {fileID: 0}
      m_TileFlags: 1
      m_ColliderType: 1
  - first: {x: 18, y: -1, z: 0}
    second:
      m_TileIndex: 165
      m_TileSpriteIndex: 32
      m_TileMatrixIndex: 0
      m_TileColorIndex: 0
      m_ObjectToInstantiate: {fileID: 0}
      m_TileFlags: 1
      m_ColliderType: 1
  - first: {x: 19, y: -1, z: 0}
    second:
      m_TileIndex: 166
      m_TileSpriteIndex: 33
      m_TileMatrixIndex: 0
      m_TileColorIndex: 0
      m_ObjectToInstantiate: {fileID: 0}
      m_TileFlags: 1
      m_ColliderType: 1
  - first: {x: 21, y: -1, z: 0}
    second:
      m_TileIndex: 167
      m_TileSpriteIndex: 34
      m_TileMatrixIndex: 0
      m_TileColorIndex: 0
      m_ObjectToInstantiate: {fileID: 0}
      m_TileFlags: 1
      m_ColliderType: 1
  - first: {x: 22, y: -1, z: 0}
    second:
      m_TileIndex: 168
      m_TileSpriteIndex: 35
      m_TileMatrixIndex: 0
      m_TileColorIndex: 0
      m_ObjectToInstantiate: {fileID: 0}
      m_TileFlags: 1
      m_ColliderType: 1
  - first: {x: -1, y: 0, z: 0}
    second:
      m_TileIndex: 0
      m_TileSpriteIndex: 0
      m_TileMatrixIndex: 0
      m_TileColorIndex: 0
      m_ObjectToInstantiate: {fileID: 0}
      m_TileFlags: 1
      m_ColliderType: 1
  - first: {x: 0, y: 0, z: 0}
    second:
      m_TileIndex: 1
      m_TileSpriteIndex: 1
      m_TileMatrixIndex: 0
      m_TileColorIndex: 0
      m_ObjectToInstantiate: {fileID: 0}
      m_TileFlags: 1
      m_ColliderType: 1
  - first: {x: 1, y: 0, z: 0}
    second:
      m_TileIndex: 2
      m_TileSpriteIndex: 2
      m_TileMatrixIndex: 0
      m_TileColorIndex: 0
      m_ObjectToInstantiate: {fileID: 0}
      m_TileFlags: 1
      m_ColliderType: 1
  - first: {x: 5, y: 0, z: 0}
    second:
      m_TileIndex: 3
      m_TileSpriteIndex: 3
      m_TileMatrixIndex: 0
      m_TileColorIndex: 0
      m_ObjectToInstantiate: {fileID: 0}
      m_TileFlags: 1
      m_ColliderType: 1
  - first: {x: 6, y: 0, z: 0}
    second:
      m_TileIndex: 4
      m_TileSpriteIndex: 4
      m_TileMatrixIndex: 0
      m_TileColorIndex: 0
      m_ObjectToInstantiate: {fileID: 0}
      m_TileFlags: 1
      m_ColliderType: 1
  - first: {x: 7, y: 0, z: 0}
    second:
      m_TileIndex: 5
      m_TileSpriteIndex: 5
      m_TileMatrixIndex: 0
      m_TileColorIndex: 0
      m_ObjectToInstantiate: {fileID: 0}
      m_TileFlags: 1
      m_ColliderType: 1
  - first: {x: 8, y: 0, z: 0}
    second:
      m_TileIndex: 6
      m_TileSpriteIndex: 6
      m_TileMatrixIndex: 0
      m_TileColorIndex: 0
      m_ObjectToInstantiate: {fileID: 0}
      m_TileFlags: 1
      m_ColliderType: 1
  - first: {x: 9, y: 0, z: 0}
    second:
      m_TileIndex: 138
      m_TileSpriteIndex: 7
      m_TileMatrixIndex: 0
      m_TileColorIndex: 0
      m_ObjectToInstantiate: {fileID: 0}
      m_TileFlags: 1
      m_ColliderType: 1
  - first: {x: 11, y: 0, z: 0}
    second:
      m_TileIndex: 141
      m_TileSpriteIndex: 8
      m_TileMatrixIndex: 0
      m_TileColorIndex: 0
      m_ObjectToInstantiate: {fileID: 0}
      m_TileFlags: 1
      m_ColliderType: 1
  - first: {x: 12, y: 0, z: 0}
    second:
      m_TileIndex: 144
      m_TileSpriteIndex: 9
      m_TileMatrixIndex: 0
      m_TileColorIndex: 0
      m_ObjectToInstantiate: {fileID: 0}
      m_TileFlags: 1
      m_ColliderType: 1
  - first: {x: 13, y: 0, z: 0}
    second:
      m_TileIndex: 153
      m_TileSpriteIndex: 10
      m_TileMatrixIndex: 0
      m_TileColorIndex: 0
      m_ObjectToInstantiate: {fileID: 0}
      m_TileFlags: 1
      m_ColliderType: 1
  - first: {x: 14, y: 0, z: 0}
    second:
      m_TileIndex: 154
      m_TileSpriteIndex: 11
      m_TileMatrixIndex: 0
      m_TileColorIndex: 0
      m_ObjectToInstantiate: {fileID: 0}
      m_TileFlags: 1
      m_ColliderType: 1
  - first: {x: 16, y: 0, z: 0}
    second:
      m_TileIndex: 155
      m_TileSpriteIndex: 12
      m_TileMatrixIndex: 0
      m_TileColorIndex: 0
      m_ObjectToInstantiate: {fileID: 0}
      m_TileFlags: 1
      m_ColliderType: 1
  - first: {x: 17, y: 0, z: 0}
    second:
      m_TileIndex: 156
      m_TileSpriteIndex: 13
      m_TileMatrixIndex: 0
      m_TileColorIndex: 0
      m_ObjectToInstantiate: {fileID: 0}
      m_TileFlags: 1
      m_ColliderType: 1
  - first: {x: 18, y: 0, z: 0}
    second:
      m_TileIndex: 157
      m_TileSpriteIndex: 14
      m_TileMatrixIndex: 0
      m_TileColorIndex: 0
      m_ObjectToInstantiate: {fileID: 0}
      m_TileFlags: 1
      m_ColliderType: 1
  - first: {x: 19, y: 0, z: 0}
    second:
      m_TileIndex: 158
      m_TileSpriteIndex: 15
      m_TileMatrixIndex: 0
      m_TileColorIndex: 0
      m_ObjectToInstantiate: {fileID: 0}
      m_TileFlags: 1
      m_ColliderType: 1
  - first: {x: 21, y: 0, z: 0}
    second:
      m_TileIndex: 159
      m_TileSpriteIndex: 16
      m_TileMatrixIndex: 0
      m_TileColorIndex: 0
      m_ObjectToInstantiate: {fileID: 0}
      m_TileFlags: 1
      m_ColliderType: 1
  - first: {x: 22, y: 0, z: 0}
    second:
      m_TileIndex: 160
      m_TileSpriteIndex: 17
      m_TileMatrixIndex: 0
      m_TileColorIndex: 0
      m_ObjectToInstantiate: {fileID: 0}
      m_TileFlags: 1
      m_ColliderType: 1
  m_AnimatedTiles: {}
  m_TileAssetArray:
  - m_RefCount: 1
    m_Data: {fileID: 11400000, guid: f4b4ec601859bf44fb8ebf3cddacea0c, type: 2}
  - m_RefCount: 1
    m_Data: {fileID: 11400000, guid: bd000a5af7c9ed44aace6dd121a5b2b5, type: 2}
  - m_RefCount: 1
    m_Data: {fileID: 11400000, guid: 8357abbd75ccd0c4a9e1fb0731253ed5, type: 2}
  - m_RefCount: 1
    m_Data: {fileID: 11400000, guid: 4959a15facc7bb14ebff012974b55db0, type: 2}
  - m_RefCount: 1
    m_Data: {fileID: 11400000, guid: 51b9d5aa3d6485941942c52c359fc291, type: 2}
  - m_RefCount: 1
    m_Data: {fileID: 11400000, guid: f4d435764f3675746bfd95260b19bd1d, type: 2}
  - m_RefCount: 1
    m_Data: {fileID: 11400000, guid: 83e27d82640f9c446b29dbf84a130e45, type: 2}
  - m_RefCount: 1
    m_Data: {fileID: 11400000, guid: e7d81f1540f30f64486af7651720c80d, type: 2}
  - m_RefCount: 1
    m_Data: {fileID: 11400000, guid: 0a4c4d23c1427964bac85022fd269605, type: 2}
  - m_RefCount: 1
    m_Data: {fileID: 11400000, guid: 1c852441001abc646b59f511a2db0114, type: 2}
  - m_RefCount: 1
    m_Data: {fileID: 11400000, guid: 26eafd961772ef6498e3f1890d1fd421, type: 2}
  - m_RefCount: 1
    m_Data: {fileID: 11400000, guid: c75129379471cf3448472ea813025a9b, type: 2}
  - m_RefCount: 1
    m_Data: {fileID: 11400000, guid: 59c1da9cf1a16c34db717ff264197535, type: 2}
  - m_RefCount: 1
    m_Data: {fileID: 11400000, guid: 5ed28cf185094e546b36401d4ba953b1, type: 2}
  - m_RefCount: 1
    m_Data: {fileID: 11400000, guid: ea81948bf8a9cb4419e1f24e280d3ea7, type: 2}
  - m_RefCount: 1
    m_Data: {fileID: 11400000, guid: 313853295c90b44488fecf56207291dc, type: 2}
  - m_RefCount: 1
    m_Data: {fileID: 11400000, guid: 7762611e86e9ffc47b5bff18dd059b03, type: 2}
  - m_RefCount: 1
    m_Data: {fileID: 11400000, guid: 8aa57f4b696f5d641861171e78fd8952, type: 2}
  - m_RefCount: 1
    m_Data: {fileID: 11400000, guid: b78a310d139e5dc4c97aefeae9409429, type: 2}
  - m_RefCount: 1
    m_Data: {fileID: 11400000, guid: bda7b72a49cc5e446bdfd85963ebd0f3, type: 2}
  - m_RefCount: 1
    m_Data: {fileID: 11400000, guid: 799cdc4961dadcc4ba1b692f21668a44, type: 2}
  - m_RefCount: 1
    m_Data: {fileID: 11400000, guid: f9c1b8890671c3f468d48bb638f901db, type: 2}
  - m_RefCount: 1
    m_Data: {fileID: 11400000, guid: 8a6e2a2ebb6d99449854db5e7aef31c4, type: 2}
  - m_RefCount: 1
    m_Data: {fileID: 11400000, guid: 3989937fa3a0a4446b188111b44147c5, type: 2}
  - m_RefCount: 1
    m_Data: {fileID: 11400000, guid: 5ce346d71d174b541bdd17e704e90b32, type: 2}
  - m_RefCount: 1
    m_Data: {fileID: 11400000, guid: 02f3e4894e086db4bb6dbdb0f7e27af2, type: 2}
  - m_RefCount: 1
    m_Data: {fileID: 11400000, guid: abaaaf6607f4d4449a8f5ba1f6dc3b7d, type: 2}
  - m_RefCount: 1
    m_Data: {fileID: 11400000, guid: f6f29672cecd2a9458ca54b1d9c24631, type: 2}
  - m_RefCount: 1
    m_Data: {fileID: 11400000, guid: 6514f32e5f9d42e41aacb8fd63bfa56d, type: 2}
  - m_RefCount: 1
    m_Data: {fileID: 11400000, guid: 9813c98dfe46936498b4b481d9a8a918, type: 2}
  - m_RefCount: 1
    m_Data: {fileID: 11400000, guid: 9a2e77b2757b9ae4dac941a5138a3407, type: 2}
  - m_RefCount: 1
    m_Data: {fileID: 11400000, guid: af3b5e2e34778f74d975158b67290eaa, type: 2}
  - m_RefCount: 1
    m_Data: {fileID: 11400000, guid: fbbf48b28588bb243989266f0cc192dd, type: 2}
  - m_RefCount: 1
    m_Data: {fileID: 11400000, guid: 97b4c203f7b0cd54b923ac89194ecaa4, type: 2}
  - m_RefCount: 1
    m_Data: {fileID: 11400000, guid: e16773e805d26df4bbc87da7b773c728, type: 2}
  - m_RefCount: 1
    m_Data: {fileID: 11400000, guid: 11a18c4dfc417144286270c37eba3496, type: 2}
  - m_RefCount: 1
    m_Data: {fileID: 11400000, guid: 249376f33bb05694dbe600b56356f977, type: 2}
  - m_RefCount: 1
    m_Data: {fileID: 11400000, guid: 8377a3460595f0c46a71a1e771e6e099, type: 2}
  - m_RefCount: 1
    m_Data: {fileID: 11400000, guid: ca54630ea3b702a48b94c18d4e2877db, type: 2}
  - m_RefCount: 1
    m_Data: {fileID: 11400000, guid: 8623af88cabfaaa4b9a98e525f7d6a58, type: 2}
  - m_RefCount: 1
    m_Data: {fileID: 11400000, guid: e58e17d202a8d9244a8ce4ec2aeb1fde, type: 2}
  - m_RefCount: 1
    m_Data: {fileID: 11400000, guid: fe993116ab7688d43be62e7a175005ae, type: 2}
  - m_RefCount: 1
    m_Data: {fileID: 11400000, guid: 334f480c31502a84791c1859ecdc1a47, type: 2}
  - m_RefCount: 1
    m_Data: {fileID: 11400000, guid: f2dfaee250281c547a554f317343ac4d, type: 2}
  - m_RefCount: 1
    m_Data: {fileID: 11400000, guid: 2d38a185f86030c46a8f847551565793, type: 2}
  - m_RefCount: 1
    m_Data: {fileID: 11400000, guid: d6d05162495a7b549a3623029b423360, type: 2}
  - m_RefCount: 1
    m_Data: {fileID: 11400000, guid: b3f6ab302ff060741a165f6cc1e21dd2, type: 2}
  - m_RefCount: 1
    m_Data: {fileID: 11400000, guid: f0cde604fb6f63a49bb49cd35f69b712, type: 2}
  - m_RefCount: 1
    m_Data: {fileID: 11400000, guid: e05a91e6896bd9b42af8b32390b841b4, type: 2}
  - m_RefCount: 1
    m_Data: {fileID: 11400000, guid: 1988eada6e79c8142ab39c64410fe85a, type: 2}
  - m_RefCount: 1
    m_Data: {fileID: 11400000, guid: f0e6592ecafcfa24bafe394318193631, type: 2}
  - m_RefCount: 1
    m_Data: {fileID: 11400000, guid: 1d8a4e52b142a064f95a9fca1143c474, type: 2}
  - m_RefCount: 1
    m_Data: {fileID: 11400000, guid: 53f01bcb6b588af4698098ad7dfcaa89, type: 2}
  - m_RefCount: 1
    m_Data: {fileID: 11400000, guid: a7cf19a71e2fb5341a3b3cc7f8d81ab7, type: 2}
  - m_RefCount: 1
    m_Data: {fileID: 11400000, guid: fa454c3de670ebb4dbe16a7b9b38889d, type: 2}
  - m_RefCount: 1
    m_Data: {fileID: 11400000, guid: 34a7a3689b8ada6409f5fdf7eb651c63, type: 2}
  - m_RefCount: 1
    m_Data: {fileID: 11400000, guid: b00f2761d6409b0458a9b23a2f43e9e0, type: 2}
  - m_RefCount: 1
    m_Data: {fileID: 11400000, guid: e4a6eee0baea5ec45a544c24fce1fbdf, type: 2}
  - m_RefCount: 1
    m_Data: {fileID: 11400000, guid: 4ead73cfd4121a543a0830fde209718f, type: 2}
  - m_RefCount: 1
    m_Data: {fileID: 11400000, guid: 945f03786f0987241a11fd7069db609d, type: 2}
  - m_RefCount: 1
    m_Data: {fileID: 11400000, guid: 4b72074e4414028429993eef31060c2f, type: 2}
  - m_RefCount: 1
    m_Data: {fileID: 11400000, guid: 1ae6a17353de8ef4e953f1a4db44317d, type: 2}
  - m_RefCount: 1
    m_Data: {fileID: 11400000, guid: 8ef6eba974c73a543bc286b64f3e23ce, type: 2}
  - m_RefCount: 1
    m_Data: {fileID: 11400000, guid: fa89e0437a6941445a094895e96e788c, type: 2}
  - m_RefCount: 1
    m_Data: {fileID: 11400000, guid: e4e5c02d3ec9ef149b947cc256ff69ca, type: 2}
  - m_RefCount: 1
    m_Data: {fileID: 11400000, guid: 3d465744bb317e446a9c77921c4d64a1, type: 2}
  - m_RefCount: 1
    m_Data: {fileID: 11400000, guid: a6591df7eb523e6478c3cbc555a0bc45, type: 2}
  - m_RefCount: 1
    m_Data: {fileID: 11400000, guid: a5b0ba85c5d26bd409998b91a28c79f2, type: 2}
  - m_RefCount: 1
    m_Data: {fileID: 11400000, guid: 164a9af88eeae2f42a5a201fc2dcddfe, type: 2}
  - m_RefCount: 1
    m_Data: {fileID: 11400000, guid: fcc041df284ceca40b6d0acbfc306ed9, type: 2}
  - m_RefCount: 1
    m_Data: {fileID: 11400000, guid: f9f0b7efb477dd04fad193be58dea6e4, type: 2}
  - m_RefCount: 1
    m_Data: {fileID: 11400000, guid: 070a523e06ec9d347b550273db6f4f81, type: 2}
  - m_RefCount: 1
    m_Data: {fileID: 11400000, guid: c0cd227baa38d124681df3f6fb4fb793, type: 2}
  - m_RefCount: 1
    m_Data: {fileID: 11400000, guid: e5fcbcd83a3b59a48ae5cacb1cbd4d69, type: 2}
  - m_RefCount: 1
    m_Data: {fileID: 11400000, guid: 15ceae0b331210c4dadc65aeb1ee815e, type: 2}
  - m_RefCount: 1
    m_Data: {fileID: 11400000, guid: c37d15b3765fcaa4a97d0efc194e1550, type: 2}
  - m_RefCount: 1
    m_Data: {fileID: 11400000, guid: ef149f9112ba4204f9c8f17510f6e1a6, type: 2}
  - m_RefCount: 1
    m_Data: {fileID: 11400000, guid: a0fafe7a11d9aa748b6212ff4ce04cf5, type: 2}
  - m_RefCount: 1
    m_Data: {fileID: 11400000, guid: 7043644946409034f868932e2420e223, type: 2}
  - m_RefCount: 1
    m_Data: {fileID: 11400000, guid: d1acba60c036c4b41a48521d21d696e9, type: 2}
  - m_RefCount: 1
    m_Data: {fileID: 11400000, guid: 6e8fd8a0f2723494a975319df838990c, type: 2}
  - m_RefCount: 1
    m_Data: {fileID: 11400000, guid: fe6bfa16d4cb1894f9a39f7e560b2f23, type: 2}
  - m_RefCount: 1
    m_Data: {fileID: 11400000, guid: 2470f8389cf3e014bb5eba6db7e9aa53, type: 2}
  - m_RefCount: 1
    m_Data: {fileID: 11400000, guid: 399210802d5a09946b1b36f4b68fc0f2, type: 2}
  - m_RefCount: 1
    m_Data: {fileID: 11400000, guid: d1150a2159e3e834d84d0b707fe75043, type: 2}
  - m_RefCount: 1
    m_Data: {fileID: 11400000, guid: 90017e912bf134e4bb1620ba7824a8d3, type: 2}
  - m_RefCount: 1
    m_Data: {fileID: 11400000, guid: f2f2b61cb55c7ff42af22b121462f644, type: 2}
  - m_RefCount: 1
    m_Data: {fileID: 11400000, guid: d6bdd51978d74e647b071192813f763f, type: 2}
  - m_RefCount: 1
    m_Data: {fileID: 11400000, guid: fbb373e9cfc597c43ab50e462d684e2b, type: 2}
  - m_RefCount: 1
    m_Data: {fileID: 11400000, guid: 21ad56c87e746e74a86056c6d5dc7010, type: 2}
  - m_RefCount: 1
    m_Data: {fileID: 11400000, guid: bc3fe1d4538c74949b1350934a27e641, type: 2}
  - m_RefCount: 1
    m_Data: {fileID: 11400000, guid: d5bb6782924e70a4a8d1430332d62fc4, type: 2}
  - m_RefCount: 1
    m_Data: {fileID: 11400000, guid: 3040bd56c730fd24b82054cf3c97f9d2, type: 2}
  - m_RefCount: 1
    m_Data: {fileID: 11400000, guid: 763f54af38ba5c64d99955f9f07c46f4, type: 2}
  - m_RefCount: 1
    m_Data: {fileID: 11400000, guid: 9c25aed6127f6524d9859f313a194101, type: 2}
  - m_RefCount: 1
    m_Data: {fileID: 11400000, guid: 39057a9c2f49e3d498ed9fe9af07f9a4, type: 2}
  - m_RefCount: 1
    m_Data: {fileID: 11400000, guid: b36914c0f9333984f9f854e298d29767, type: 2}
  - m_RefCount: 1
    m_Data: {fileID: 11400000, guid: d52cf3a28fd56ea4e84fe648834760a6, type: 2}
  - m_RefCount: 1
    m_Data: {fileID: 11400000, guid: 233f076b5dbc28744bf3b17cff9d50be, type: 2}
  - m_RefCount: 1
    m_Data: {fileID: 11400000, guid: 743e79e98e8ccc64688be1bea6f36a77, type: 2}
  - m_RefCount: 1
    m_Data: {fileID: 11400000, guid: f488c9a76a73f0847a70532d1b4a26e8, type: 2}
  - m_RefCount: 1
    m_Data: {fileID: 11400000, guid: 43ef495ed355e2f4da37c2da8e144fb8, type: 2}
  - m_RefCount: 1
    m_Data: {fileID: 11400000, guid: c09c5aa6fac6ae04ba7796958d28b36f, type: 2}
  - m_RefCount: 1
    m_Data: {fileID: 11400000, guid: ba9888083182ea04cba36df89b75be84, type: 2}
  - m_RefCount: 1
    m_Data: {fileID: 11400000, guid: 58a61c672df585e44bed4701df2651c0, type: 2}
  - m_RefCount: 1
    m_Data: {fileID: 11400000, guid: 3b55334c789ff9a4aba7c345a28b7c0b, type: 2}
  - m_RefCount: 1
    m_Data: {fileID: 11400000, guid: efe5a8c221e946640b1196744dddbbed, type: 2}
  - m_RefCount: 1
    m_Data: {fileID: 11400000, guid: bac93076fedddbc4a9457e3a674f5008, type: 2}
  - m_RefCount: 1
    m_Data: {fileID: 11400000, guid: bfd7d5adf396a1240bf11cb187f86b70, type: 2}
  - m_RefCount: 1
    m_Data: {fileID: 11400000, guid: b3ad53d5ad10ef54e9a4f1d03346c520, type: 2}
  - m_RefCount: 1
    m_Data: {fileID: 11400000, guid: a9ae5577812bee24cb80cf419879ae40, type: 2}
  - m_RefCount: 1
    m_Data: {fileID: 11400000, guid: fbf4d7dab69501a4ba8f264807805a6f, type: 2}
  - m_RefCount: 1
    m_Data: {fileID: 11400000, guid: 44408f5e621f0f34fa1fe7419c512334, type: 2}
  - m_RefCount: 1
    m_Data: {fileID: 11400000, guid: ad9973505809d1b4cb22a30b51fa422a, type: 2}
  - m_RefCount: 1
    m_Data: {fileID: 11400000, guid: d674b014bdfc5f24ca9065f16e9045ba, type: 2}
  - m_RefCount: 1
    m_Data: {fileID: 11400000, guid: e396ea7f5b3e41840ac598405265fe67, type: 2}
  - m_RefCount: 1
    m_Data: {fileID: 11400000, guid: 56682d1043c4b7d46b1adfc2e64946ef, type: 2}
  - m_RefCount: 1
    m_Data: {fileID: 11400000, guid: 46acaac74454e344f86664a8a0988e61, type: 2}
  - m_RefCount: 1
    m_Data: {fileID: 11400000, guid: ab3747f06df2f764185d7c9f50637c9a, type: 2}
  - m_RefCount: 1
    m_Data: {fileID: 11400000, guid: 8daf53d1c84bd62488e5aa9a9f1f7929, type: 2}
  - m_RefCount: 1
    m_Data: {fileID: 11400000, guid: 61cf1c1cac84f254fa939212e1bf87b9, type: 2}
  - m_RefCount: 1
    m_Data: {fileID: 11400000, guid: ddfd447789dbb5b4793c0b2249551aec, type: 2}
  - m_RefCount: 1
    m_Data: {fileID: 11400000, guid: 32c7d3a8b616007438e405051c070130, type: 2}
  - m_RefCount: 1
    m_Data: {fileID: 11400000, guid: 50a86ecae5a90dd49a1fc2c8e56604c2, type: 2}
  - m_RefCount: 1
    m_Data: {fileID: 11400000, guid: dea413587d0769a478be2878b8777334, type: 2}
  - m_RefCount: 1
    m_Data: {fileID: 11400000, guid: 9b0ce1469a3c3034c9213e9037556f3a, type: 2}
  - m_RefCount: 1
    m_Data: {fileID: 11400000, guid: 0f8cca033a3a3fa44a82912b183b60e1, type: 2}
  - m_RefCount: 1
    m_Data: {fileID: 11400000, guid: 55c95b6c834cd294a8cb9f4d65058eac, type: 2}
  - m_RefCount: 1
    m_Data: {fileID: 11400000, guid: a7437922d369e564196677ed0b485084, type: 2}
  - m_RefCount: 1
    m_Data: {fileID: 11400000, guid: 834df8fc4bb5e9e499321b405300a617, type: 2}
  - m_RefCount: 1
    m_Data: {fileID: 11400000, guid: 2435293cd6b0d0b46999b792de848b31, type: 2}
  - m_RefCount: 1
    m_Data: {fileID: 11400000, guid: fbb6ab6e1d4409c4ab8c09580a332432, type: 2}
  - m_RefCount: 1
    m_Data: {fileID: 11400000, guid: 70b3cd060b58de2479b513cb2084039d, type: 2}
  - m_RefCount: 1
    m_Data: {fileID: 11400000, guid: c6b84c0f9c97c09468773cc227d77ae6, type: 2}
  - m_RefCount: 1
    m_Data: {fileID: 11400000, guid: 7393fcc31be43504eb3a5cea8bb9c14c, type: 2}
  - m_RefCount: 1
    m_Data: {fileID: 11400000, guid: bd30847fa5c3ba448b344a4121d6e8a5, type: 2}
  - m_RefCount: 1
    m_Data: {fileID: 11400000, guid: 99656f9d4ac95d74893c2011dc5c5678, type: 2}
  - m_RefCount: 1
    m_Data: {fileID: 11400000, guid: dbf233214937137488108a00b5a13516, type: 2}
  - m_RefCount: 1
    m_Data: {fileID: 11400000, guid: 5d590ab71fc264440a006f3cc41c0c04, type: 2}
  - m_RefCount: 1
    m_Data: {fileID: 11400000, guid: 50c0f6ac54c823f49a0faf04dea169b6, type: 2}
  - m_RefCount: 1
    m_Data: {fileID: 11400000, guid: f4ce607fa96613e49837b0d092003ee7, type: 2}
  - m_RefCount: 1
    m_Data: {fileID: 11400000, guid: 22398b8504a8879439fb76b64929972c, type: 2}
  - m_RefCount: 1
    m_Data: {fileID: 11400000, guid: ba5dacd5d7458494eb490c6f83e2f171, type: 2}
  - m_RefCount: 1
    m_Data: {fileID: 11400000, guid: d9dff1518a1300c48aa3c03a06f771e7, type: 2}
  - m_RefCount: 1
    m_Data: {fileID: 11400000, guid: 2c0906b0b867a934cb2e68fc49f523e1, type: 2}
  - m_RefCount: 1
    m_Data: {fileID: 11400000, guid: 9bdc43b426889e0479e6c8646556b569, type: 2}
  - m_RefCount: 1
    m_Data: {fileID: 11400000, guid: 1bd93bf87ad9ba84fa179a9bbb22e923, type: 2}
  - m_RefCount: 1
    m_Data: {fileID: 11400000, guid: 6d2ff8c91555c8b498f33d8f2dc30b19, type: 2}
  - m_RefCount: 1
    m_Data: {fileID: 11400000, guid: 491f8dd626f0a3e459731e6658cbadcf, type: 2}
  - m_RefCount: 1
    m_Data: {fileID: 11400000, guid: eaa6d90cb13fef94cb2f7384500f471c, type: 2}
  - m_RefCount: 1
    m_Data: {fileID: 11400000, guid: 10cca6e159faa8e44b6601dde304131a, type: 2}
  - m_RefCount: 1
    m_Data: {fileID: 11400000, guid: 5b2a3b0a69222e84a97d9e2d2528a0e2, type: 2}
  - m_RefCount: 1
    m_Data: {fileID: 11400000, guid: ac736b3ee3a506748ba21650a25b1c13, type: 2}
  - m_RefCount: 1
    m_Data: {fileID: 11400000, guid: b1add4297ae1bd1439d5df6564f106d4, type: 2}
  - m_RefCount: 1
    m_Data: {fileID: 11400000, guid: 40173bc34899bfd42bfa2d300f4af59c, type: 2}
  - m_RefCount: 1
    m_Data: {fileID: 11400000, guid: 466659111d1680046a0fad3cdbb1cee4, type: 2}
  - m_RefCount: 1
    m_Data: {fileID: 11400000, guid: 2120f3735137d78439ae0a53d74420fc, type: 2}
  - m_RefCount: 1
    m_Data: {fileID: 11400000, guid: fe19bc7a43d55604f9b87cdb34550cfd, type: 2}
  - m_RefCount: 1
    m_Data: {fileID: 11400000, guid: 52fceea7f9d5d7248abd29ba08021094, type: 2}
  - m_RefCount: 1
    m_Data: {fileID: 11400000, guid: e5fcadf993274524ebae9ee367990077, type: 2}
  - m_RefCount: 1
    m_Data: {fileID: 11400000, guid: 4e14a8b58a059be418c7b68ab13ef909, type: 2}
  - m_RefCount: 1
    m_Data: {fileID: 11400000, guid: 77dc9255895c2b84095772594c32f601, type: 2}
  - m_RefCount: 1
    m_Data: {fileID: 11400000, guid: 95a69507b24f9bc4aa6dbef3248987b7, type: 2}
  - m_RefCount: 1
    m_Data: {fileID: 11400000, guid: fdeca9fd316bc8040a2489ab497ecc70, type: 2}
  - m_RefCount: 1
    m_Data: {fileID: 11400000, guid: d469a6e9d4d8654408f896ce5d526fdb, type: 2}
  - m_RefCount: 1
    m_Data: {fileID: 11400000, guid: 70a5cd08b9ea67d41a83e426ccf90ccd, type: 2}
  - m_RefCount: 1
    m_Data: {fileID: 11400000, guid: 9ce92b9fe7c492e469bbe48396e6271a, type: 2}
  - m_RefCount: 1
    m_Data: {fileID: 11400000, guid: 24a18a4d903bce249962121e09fa1120, type: 2}
  - m_RefCount: 1
    m_Data: {fileID: 11400000, guid: 33239673f266ec04a90c7ee08ad8dc8c, type: 2}
  - m_RefCount: 1
    m_Data: {fileID: 11400000, guid: ceaa3c64f7262ac418c17abc53b35ac9, type: 2}
  - m_RefCount: 1
    m_Data: {fileID: 11400000, guid: 40f1f0737e4b5d04da00c1aefad5f608, type: 2}
  - m_RefCount: 1
    m_Data: {fileID: 11400000, guid: 2801e5e09dcd75b4abd4d5d6d74f471e, type: 2}
  - m_RefCount: 1
    m_Data: {fileID: 11400000, guid: a8c799ddcf0f6e941b37be1dff2dbf68, type: 2}
  - m_RefCount: 1
    m_Data: {fileID: 11400000, guid: fd22c0b77696fbb409c1c0c594e3b9fa, type: 2}
  - m_RefCount: 1
    m_Data: {fileID: 11400000, guid: d22bc4392a0919e4395afd42fe568491, type: 2}
  - m_RefCount: 1
    m_Data: {fileID: 11400000, guid: 755019796211c6f4a953708ce01ddc7a, type: 2}
  - m_RefCount: 1
    m_Data: {fileID: 11400000, guid: a786f440d0d358946afdec10f721347a, type: 2}
  - m_RefCount: 1
    m_Data: {fileID: 11400000, guid: 0b16bede28ad235458a747ffd686d06c, type: 2}
  m_TileSpriteArray:
  - m_RefCount: 1
    m_Data: {fileID: 21300000, guid: ab202decba2263a4e9730c539550559b, type: 3}
  - m_RefCount: 1
    m_Data: {fileID: 21300002, guid: ab202decba2263a4e9730c539550559b, type: 3}
  - m_RefCount: 1
    m_Data: {fileID: 21300004, guid: ab202decba2263a4e9730c539550559b, type: 3}
  - m_RefCount: 1
    m_Data: {fileID: 21300006, guid: ab202decba2263a4e9730c539550559b, type: 3}
  - m_RefCount: 1
    m_Data: {fileID: 21300008, guid: ab202decba2263a4e9730c539550559b, type: 3}
  - m_RefCount: 1
    m_Data: {fileID: 21300010, guid: ab202decba2263a4e9730c539550559b, type: 3}
  - m_RefCount: 1
    m_Data: {fileID: 21300012, guid: ab202decba2263a4e9730c539550559b, type: 3}
  - m_RefCount: 1
    m_Data: {fileID: 21300014, guid: ab202decba2263a4e9730c539550559b, type: 3}
  - m_RefCount: 1
    m_Data: {fileID: 21300016, guid: ab202decba2263a4e9730c539550559b, type: 3}
  - m_RefCount: 1
    m_Data: {fileID: 21300018, guid: ab202decba2263a4e9730c539550559b, type: 3}
  - m_RefCount: 1
    m_Data: {fileID: 21300020, guid: ab202decba2263a4e9730c539550559b, type: 3}
  - m_RefCount: 1
    m_Data: {fileID: 21300022, guid: ab202decba2263a4e9730c539550559b, type: 3}
  - m_RefCount: 1
    m_Data: {fileID: 21300024, guid: ab202decba2263a4e9730c539550559b, type: 3}
  - m_RefCount: 1
    m_Data: {fileID: 21300026, guid: ab202decba2263a4e9730c539550559b, type: 3}
  - m_RefCount: 1
    m_Data: {fileID: 21300028, guid: ab202decba2263a4e9730c539550559b, type: 3}
  - m_RefCount: 1
    m_Data: {fileID: 21300030, guid: ab202decba2263a4e9730c539550559b, type: 3}
  - m_RefCount: 1
    m_Data: {fileID: 21300032, guid: ab202decba2263a4e9730c539550559b, type: 3}
  - m_RefCount: 1
    m_Data: {fileID: 21300034, guid: ab202decba2263a4e9730c539550559b, type: 3}
  - m_RefCount: 1
    m_Data: {fileID: 21300036, guid: ab202decba2263a4e9730c539550559b, type: 3}
  - m_RefCount: 1
    m_Data: {fileID: 21300038, guid: ab202decba2263a4e9730c539550559b, type: 3}
  - m_RefCount: 1
    m_Data: {fileID: 21300040, guid: ab202decba2263a4e9730c539550559b, type: 3}
  - m_RefCount: 1
    m_Data: {fileID: 21300042, guid: ab202decba2263a4e9730c539550559b, type: 3}
  - m_RefCount: 1
    m_Data: {fileID: 21300044, guid: ab202decba2263a4e9730c539550559b, type: 3}
  - m_RefCount: 1
    m_Data: {fileID: 21300046, guid: ab202decba2263a4e9730c539550559b, type: 3}
  - m_RefCount: 1
    m_Data: {fileID: 21300048, guid: ab202decba2263a4e9730c539550559b, type: 3}
  - m_RefCount: 1
    m_Data: {fileID: 21300050, guid: ab202decba2263a4e9730c539550559b, type: 3}
  - m_RefCount: 1
    m_Data: {fileID: 21300052, guid: ab202decba2263a4e9730c539550559b, type: 3}
  - m_RefCount: 1
    m_Data: {fileID: 21300054, guid: ab202decba2263a4e9730c539550559b, type: 3}
  - m_RefCount: 1
    m_Data: {fileID: 21300056, guid: ab202decba2263a4e9730c539550559b, type: 3}
  - m_RefCount: 1
    m_Data: {fileID: 21300058, guid: ab202decba2263a4e9730c539550559b, type: 3}
  - m_RefCount: 1
    m_Data: {fileID: 21300060, guid: ab202decba2263a4e9730c539550559b, type: 3}
  - m_RefCount: 1
    m_Data: {fileID: 21300062, guid: ab202decba2263a4e9730c539550559b, type: 3}
  - m_RefCount: 1
    m_Data: {fileID: 21300064, guid: ab202decba2263a4e9730c539550559b, type: 3}
  - m_RefCount: 1
    m_Data: {fileID: 21300066, guid: ab202decba2263a4e9730c539550559b, type: 3}
  - m_RefCount: 1
    m_Data: {fileID: 21300068, guid: ab202decba2263a4e9730c539550559b, type: 3}
  - m_RefCount: 1
    m_Data: {fileID: 21300070, guid: ab202decba2263a4e9730c539550559b, type: 3}
  - m_RefCount: 1
    m_Data: {fileID: 21300072, guid: ab202decba2263a4e9730c539550559b, type: 3}
  - m_RefCount: 1
    m_Data: {fileID: 21300074, guid: ab202decba2263a4e9730c539550559b, type: 3}
  - m_RefCount: 1
    m_Data: {fileID: 21300076, guid: ab202decba2263a4e9730c539550559b, type: 3}
  - m_RefCount: 1
    m_Data: {fileID: 21300078, guid: ab202decba2263a4e9730c539550559b, type: 3}
  - m_RefCount: 1
    m_Data: {fileID: 21300080, guid: ab202decba2263a4e9730c539550559b, type: 3}
  - m_RefCount: 1
    m_Data: {fileID: 21300082, guid: ab202decba2263a4e9730c539550559b, type: 3}
  - m_RefCount: 1
    m_Data: {fileID: 21300084, guid: ab202decba2263a4e9730c539550559b, type: 3}
  - m_RefCount: 1
    m_Data: {fileID: 21300086, guid: ab202decba2263a4e9730c539550559b, type: 3}
  - m_RefCount: 1
    m_Data: {fileID: 21300088, guid: ab202decba2263a4e9730c539550559b, type: 3}
  - m_RefCount: 1
    m_Data: {fileID: 21300090, guid: ab202decba2263a4e9730c539550559b, type: 3}
  - m_RefCount: 1
    m_Data: {fileID: 21300092, guid: ab202decba2263a4e9730c539550559b, type: 3}
  - m_RefCount: 1
    m_Data: {fileID: 21300094, guid: ab202decba2263a4e9730c539550559b, type: 3}
  - m_RefCount: 1
    m_Data: {fileID: 21300096, guid: ab202decba2263a4e9730c539550559b, type: 3}
  - m_RefCount: 1
    m_Data: {fileID: 21300098, guid: ab202decba2263a4e9730c539550559b, type: 3}
  - m_RefCount: 1
    m_Data: {fileID: 21300100, guid: ab202decba2263a4e9730c539550559b, type: 3}
  - m_RefCount: 1
    m_Data: {fileID: 21300102, guid: ab202decba2263a4e9730c539550559b, type: 3}
  - m_RefCount: 1
    m_Data: {fileID: 21300104, guid: ab202decba2263a4e9730c539550559b, type: 3}
  - m_RefCount: 1
    m_Data: {fileID: 21300106, guid: ab202decba2263a4e9730c539550559b, type: 3}
  - m_RefCount: 1
    m_Data: {fileID: 21300108, guid: ab202decba2263a4e9730c539550559b, type: 3}
  - m_RefCount: 1
    m_Data: {fileID: 21300110, guid: ab202decba2263a4e9730c539550559b, type: 3}
  - m_RefCount: 1
    m_Data: {fileID: 21300112, guid: ab202decba2263a4e9730c539550559b, type: 3}
  - m_RefCount: 1
    m_Data: {fileID: 21300114, guid: ab202decba2263a4e9730c539550559b, type: 3}
  - m_RefCount: 1
    m_Data: {fileID: 21300116, guid: ab202decba2263a4e9730c539550559b, type: 3}
  - m_RefCount: 1
    m_Data: {fileID: 21300118, guid: ab202decba2263a4e9730c539550559b, type: 3}
  - m_RefCount: 1
    m_Data: {fileID: 21300120, guid: ab202decba2263a4e9730c539550559b, type: 3}
  - m_RefCount: 1
    m_Data: {fileID: 21300122, guid: ab202decba2263a4e9730c539550559b, type: 3}
  - m_RefCount: 1
    m_Data: {fileID: 21300124, guid: ab202decba2263a4e9730c539550559b, type: 3}
  - m_RefCount: 1
    m_Data: {fileID: 21300126, guid: ab202decba2263a4e9730c539550559b, type: 3}
  - m_RefCount: 1
    m_Data: {fileID: 21300128, guid: ab202decba2263a4e9730c539550559b, type: 3}
  - m_RefCount: 1
    m_Data: {fileID: 21300130, guid: ab202decba2263a4e9730c539550559b, type: 3}
  - m_RefCount: 1
    m_Data: {fileID: 21300132, guid: ab202decba2263a4e9730c539550559b, type: 3}
  - m_RefCount: 1
    m_Data: {fileID: 21300134, guid: ab202decba2263a4e9730c539550559b, type: 3}
  - m_RefCount: 1
    m_Data: {fileID: 21300136, guid: ab202decba2263a4e9730c539550559b, type: 3}
  - m_RefCount: 1
    m_Data: {fileID: 21300138, guid: ab202decba2263a4e9730c539550559b, type: 3}
  - m_RefCount: 1
    m_Data: {fileID: 21300140, guid: ab202decba2263a4e9730c539550559b, type: 3}
  - m_RefCount: 1
    m_Data: {fileID: 21300142, guid: ab202decba2263a4e9730c539550559b, type: 3}
  - m_RefCount: 1
    m_Data: {fileID: 21300144, guid: ab202decba2263a4e9730c539550559b, type: 3}
  - m_RefCount: 1
    m_Data: {fileID: 21300146, guid: ab202decba2263a4e9730c539550559b, type: 3}
  - m_RefCount: 1
    m_Data: {fileID: 21300148, guid: ab202decba2263a4e9730c539550559b, type: 3}
  - m_RefCount: 1
    m_Data: {fileID: 21300150, guid: ab202decba2263a4e9730c539550559b, type: 3}
  - m_RefCount: 1
    m_Data: {fileID: 21300152, guid: ab202decba2263a4e9730c539550559b, type: 3}
  - m_RefCount: 1
    m_Data: {fileID: 21300154, guid: ab202decba2263a4e9730c539550559b, type: 3}
  - m_RefCount: 1
    m_Data: {fileID: 21300156, guid: ab202decba2263a4e9730c539550559b, type: 3}
  - m_RefCount: 1
    m_Data: {fileID: 21300158, guid: ab202decba2263a4e9730c539550559b, type: 3}
  - m_RefCount: 1
    m_Data: {fileID: 21300160, guid: ab202decba2263a4e9730c539550559b, type: 3}
  - m_RefCount: 1
    m_Data: {fileID: 21300162, guid: ab202decba2263a4e9730c539550559b, type: 3}
  - m_RefCount: 1
    m_Data: {fileID: 21300164, guid: ab202decba2263a4e9730c539550559b, type: 3}
  - m_RefCount: 1
    m_Data: {fileID: 21300166, guid: ab202decba2263a4e9730c539550559b, type: 3}
  - m_RefCount: 1
    m_Data: {fileID: 21300168, guid: ab202decba2263a4e9730c539550559b, type: 3}
  - m_RefCount: 1
    m_Data: {fileID: 21300170, guid: ab202decba2263a4e9730c539550559b, type: 3}
  - m_RefCount: 1
    m_Data: {fileID: 21300172, guid: ab202decba2263a4e9730c539550559b, type: 3}
  - m_RefCount: 1
    m_Data: {fileID: 21300174, guid: ab202decba2263a4e9730c539550559b, type: 3}
  - m_RefCount: 1
    m_Data: {fileID: 21300176, guid: ab202decba2263a4e9730c539550559b, type: 3}
  - m_RefCount: 1
    m_Data: {fileID: 21300178, guid: ab202decba2263a4e9730c539550559b, type: 3}
  - m_RefCount: 1
    m_Data: {fileID: 21300180, guid: ab202decba2263a4e9730c539550559b, type: 3}
  - m_RefCount: 1
    m_Data: {fileID: 21300182, guid: ab202decba2263a4e9730c539550559b, type: 3}
  - m_RefCount: 1
    m_Data: {fileID: 21300184, guid: ab202decba2263a4e9730c539550559b, type: 3}
  - m_RefCount: 1
    m_Data: {fileID: 21300186, guid: ab202decba2263a4e9730c539550559b, type: 3}
  - m_RefCount: 1
    m_Data: {fileID: 21300188, guid: ab202decba2263a4e9730c539550559b, type: 3}
  - m_RefCount: 1
    m_Data: {fileID: 21300190, guid: ab202decba2263a4e9730c539550559b, type: 3}
  - m_RefCount: 1
    m_Data: {fileID: 21300192, guid: ab202decba2263a4e9730c539550559b, type: 3}
  - m_RefCount: 1
    m_Data: {fileID: 21300194, guid: ab202decba2263a4e9730c539550559b, type: 3}
  - m_RefCount: 1
    m_Data: {fileID: 21300196, guid: ab202decba2263a4e9730c539550559b, type: 3}
  - m_RefCount: 1
    m_Data: {fileID: 21300198, guid: ab202decba2263a4e9730c539550559b, type: 3}
  - m_RefCount: 1
    m_Data: {fileID: 21300200, guid: ab202decba2263a4e9730c539550559b, type: 3}
  - m_RefCount: 1
    m_Data: {fileID: 21300202, guid: ab202decba2263a4e9730c539550559b, type: 3}
  - m_RefCount: 1
    m_Data: {fileID: 21300204, guid: ab202decba2263a4e9730c539550559b, type: 3}
  - m_RefCount: 1
    m_Data: {fileID: 21300206, guid: ab202decba2263a4e9730c539550559b, type: 3}
  - m_RefCount: 1
    m_Data: {fileID: 21300208, guid: ab202decba2263a4e9730c539550559b, type: 3}
  - m_RefCount: 1
    m_Data: {fileID: 21300210, guid: ab202decba2263a4e9730c539550559b, type: 3}
  - m_RefCount: 1
    m_Data: {fileID: 21300212, guid: ab202decba2263a4e9730c539550559b, type: 3}
  - m_RefCount: 1
    m_Data: {fileID: 21300214, guid: ab202decba2263a4e9730c539550559b, type: 3}
  - m_RefCount: 1
    m_Data: {fileID: 21300216, guid: ab202decba2263a4e9730c539550559b, type: 3}
  - m_RefCount: 1
    m_Data: {fileID: 21300218, guid: ab202decba2263a4e9730c539550559b, type: 3}
  - m_RefCount: 1
    m_Data: {fileID: 21300220, guid: ab202decba2263a4e9730c539550559b, type: 3}
  - m_RefCount: 1
    m_Data: {fileID: 21300222, guid: ab202decba2263a4e9730c539550559b, type: 3}
  - m_RefCount: 1
    m_Data: {fileID: 21300224, guid: ab202decba2263a4e9730c539550559b, type: 3}
  - m_RefCount: 1
    m_Data: {fileID: 21300226, guid: ab202decba2263a4e9730c539550559b, type: 3}
  - m_RefCount: 1
    m_Data: {fileID: 21300228, guid: ab202decba2263a4e9730c539550559b, type: 3}
  - m_RefCount: 1
    m_Data: {fileID: 21300230, guid: ab202decba2263a4e9730c539550559b, type: 3}
  - m_RefCount: 1
    m_Data: {fileID: 21300232, guid: ab202decba2263a4e9730c539550559b, type: 3}
  - m_RefCount: 1
    m_Data: {fileID: 21300234, guid: ab202decba2263a4e9730c539550559b, type: 3}
  - m_RefCount: 1
    m_Data: {fileID: 21300236, guid: ab202decba2263a4e9730c539550559b, type: 3}
  - m_RefCount: 1
    m_Data: {fileID: 21300238, guid: ab202decba2263a4e9730c539550559b, type: 3}
  - m_RefCount: 1
    m_Data: {fileID: 21300240, guid: ab202decba2263a4e9730c539550559b, type: 3}
  - m_RefCount: 1
    m_Data: {fileID: 21300242, guid: ab202decba2263a4e9730c539550559b, type: 3}
  - m_RefCount: 1
    m_Data: {fileID: 21300244, guid: ab202decba2263a4e9730c539550559b, type: 3}
  - m_RefCount: 1
    m_Data: {fileID: 21300246, guid: ab202decba2263a4e9730c539550559b, type: 3}
  - m_RefCount: 1
    m_Data: {fileID: 21300248, guid: ab202decba2263a4e9730c539550559b, type: 3}
  - m_RefCount: 1
    m_Data: {fileID: 21300250, guid: ab202decba2263a4e9730c539550559b, type: 3}
  - m_RefCount: 1
    m_Data: {fileID: 21300252, guid: ab202decba2263a4e9730c539550559b, type: 3}
  - m_RefCount: 1
    m_Data: {fileID: 21300254, guid: ab202decba2263a4e9730c539550559b, type: 3}
  - m_RefCount: 1
    m_Data: {fileID: 21300256, guid: ab202decba2263a4e9730c539550559b, type: 3}
  - m_RefCount: 1
    m_Data: {fileID: 21300258, guid: ab202decba2263a4e9730c539550559b, type: 3}
  - m_RefCount: 1
    m_Data: {fileID: 21300260, guid: ab202decba2263a4e9730c539550559b, type: 3}
  - m_RefCount: 1
    m_Data: {fileID: 21300262, guid: ab202decba2263a4e9730c539550559b, type: 3}
  - m_RefCount: 1
    m_Data: {fileID: 21300264, guid: ab202decba2263a4e9730c539550559b, type: 3}
  - m_RefCount: 1
    m_Data: {fileID: 21300266, guid: ab202decba2263a4e9730c539550559b, type: 3}
  - m_RefCount: 1
    m_Data: {fileID: 21300268, guid: ab202decba2263a4e9730c539550559b, type: 3}
  - m_RefCount: 1
    m_Data: {fileID: 21300270, guid: ab202decba2263a4e9730c539550559b, type: 3}
  - m_RefCount: 1
    m_Data: {fileID: 21300272, guid: ab202decba2263a4e9730c539550559b, type: 3}
  - m_RefCount: 1
    m_Data: {fileID: 21300274, guid: ab202decba2263a4e9730c539550559b, type: 3}
  - m_RefCount: 1
    m_Data: {fileID: 21300276, guid: ab202decba2263a4e9730c539550559b, type: 3}
  - m_RefCount: 1
    m_Data: {fileID: 21300278, guid: ab202decba2263a4e9730c539550559b, type: 3}
  - m_RefCount: 1
    m_Data: {fileID: 21300280, guid: ab202decba2263a4e9730c539550559b, type: 3}
  - m_RefCount: 1
    m_Data: {fileID: 21300282, guid: ab202decba2263a4e9730c539550559b, type: 3}
  - m_RefCount: 1
    m_Data: {fileID: 21300284, guid: ab202decba2263a4e9730c539550559b, type: 3}
  - m_RefCount: 1
    m_Data: {fileID: 21300286, guid: ab202decba2263a4e9730c539550559b, type: 3}
  - m_RefCount: 1
    m_Data: {fileID: 21300288, guid: ab202decba2263a4e9730c539550559b, type: 3}
  - m_RefCount: 1
    m_Data: {fileID: 21300290, guid: ab202decba2263a4e9730c539550559b, type: 3}
  - m_RefCount: 1
    m_Data: {fileID: 21300292, guid: ab202decba2263a4e9730c539550559b, type: 3}
  - m_RefCount: 1
    m_Data: {fileID: 21300294, guid: ab202decba2263a4e9730c539550559b, type: 3}
  - m_RefCount: 1
    m_Data: {fileID: 21300296, guid: ab202decba2263a4e9730c539550559b, type: 3}
  - m_RefCount: 1
    m_Data: {fileID: 21300298, guid: ab202decba2263a4e9730c539550559b, type: 3}
  - m_RefCount: 1
    m_Data: {fileID: 21300300, guid: ab202decba2263a4e9730c539550559b, type: 3}
  - m_RefCount: 1
    m_Data: {fileID: 21300302, guid: ab202decba2263a4e9730c539550559b, type: 3}
  - m_RefCount: 1
    m_Data: {fileID: 21300304, guid: ab202decba2263a4e9730c539550559b, type: 3}
  - m_RefCount: 1
    m_Data: {fileID: 21300306, guid: ab202decba2263a4e9730c539550559b, type: 3}
  - m_RefCount: 1
    m_Data: {fileID: 21300308, guid: ab202decba2263a4e9730c539550559b, type: 3}
  - m_RefCount: 1
    m_Data: {fileID: 21300310, guid: ab202decba2263a4e9730c539550559b, type: 3}
  - m_RefCount: 1
    m_Data: {fileID: 21300312, guid: ab202decba2263a4e9730c539550559b, type: 3}
  - m_RefCount: 1
    m_Data: {fileID: 21300314, guid: ab202decba2263a4e9730c539550559b, type: 3}
  - m_RefCount: 1
    m_Data: {fileID: 21300316, guid: ab202decba2263a4e9730c539550559b, type: 3}
  - m_RefCount: 1
    m_Data: {fileID: 21300318, guid: ab202decba2263a4e9730c539550559b, type: 3}
  - m_RefCount: 1
    m_Data: {fileID: 21300320, guid: ab202decba2263a4e9730c539550559b, type: 3}
  - m_RefCount: 1
    m_Data: {fileID: 21300322, guid: ab202decba2263a4e9730c539550559b, type: 3}
  - m_RefCount: 1
    m_Data: {fileID: 21300324, guid: ab202decba2263a4e9730c539550559b, type: 3}
  - m_RefCount: 1
    m_Data: {fileID: 21300326, guid: ab202decba2263a4e9730c539550559b, type: 3}
  - m_RefCount: 1
    m_Data: {fileID: 21300328, guid: ab202decba2263a4e9730c539550559b, type: 3}
  - m_RefCount: 1
    m_Data: {fileID: 21300330, guid: ab202decba2263a4e9730c539550559b, type: 3}
  - m_RefCount: 1
    m_Data: {fileID: 21300332, guid: ab202decba2263a4e9730c539550559b, type: 3}
  - m_RefCount: 1
    m_Data: {fileID: 21300334, guid: ab202decba2263a4e9730c539550559b, type: 3}
  - m_RefCount: 1
    m_Data: {fileID: 21300336, guid: ab202decba2263a4e9730c539550559b, type: 3}
  - m_RefCount: 1
    m_Data: {fileID: 21300338, guid: ab202decba2263a4e9730c539550559b, type: 3}
  - m_RefCount: 1
    m_Data: {fileID: 21300340, guid: ab202decba2263a4e9730c539550559b, type: 3}
  - m_RefCount: 1
    m_Data: {fileID: 21300342, guid: ab202decba2263a4e9730c539550559b, type: 3}
  - m_RefCount: 1
    m_Data: {fileID: 21300344, guid: ab202decba2263a4e9730c539550559b, type: 3}
  - m_RefCount: 1
    m_Data: {fileID: 21300346, guid: ab202decba2263a4e9730c539550559b, type: 3}
  - m_RefCount: 1
    m_Data: {fileID: 21300348, guid: ab202decba2263a4e9730c539550559b, type: 3}
  - m_RefCount: 1
    m_Data: {fileID: 21300350, guid: ab202decba2263a4e9730c539550559b, type: 3}
  - m_RefCount: 1
    m_Data: {fileID: 21300352, guid: ab202decba2263a4e9730c539550559b, type: 3}
  - m_RefCount: 1
    m_Data: {fileID: 21300354, guid: ab202decba2263a4e9730c539550559b, type: 3}
  m_TileMatrixArray:
  - m_RefCount: 178
    m_Data:
      e00: 1
      e01: 0
      e02: 0
      e03: 0
      e10: 0
      e11: 1
      e12: 0
      e13: 0
      e20: 0
      e21: 0
      e22: 1
      e23: 0
      e30: 0
      e31: 0
      e32: 0
      e33: 1
  m_TileColorArray:
  - m_RefCount: 178
    m_Data: {r: 1, g: 1, b: 1, a: 1}
  m_AnimationFrameRate: 1
  m_Color: {r: 1, g: 1, b: 1, a: 1}
  m_Origin: {x: -1, y: -8, z: 0}
  m_Size: {x: 32, y: 9, z: 1}
  m_TileAnchor: {x: 0.5, y: 0.5, z: 0}
  m_TileOrientation: 0
  m_TileOrientationMatrix:
    e00: 1
    e01: 0
    e02: 0
    e03: 0
    e10: 0
    e11: 1
    e12: 0
    e13: 0
    e20: 0
    e21: 0
    e22: 1
    e23: 0
    e30: 0
    e31: 0
    e32: 0
    e33: 1
--- !u!483693784 &5840678898355814549
TilemapRenderer:
  m_ObjectHideFlags: 0
  m_CorrespondingSourceObject: {fileID: 0}
  m_PrefabInstance: {fileID: 0}
  m_PrefabAsset: {fileID: 0}
  m_GameObject: {fileID: 6453260119943104566}
  m_Enabled: 0
  m_CastShadows: 0
  m_ReceiveShadows: 0
  m_DynamicOccludee: 0
  m_MotionVectors: 1
  m_LightProbeUsage: 0
  m_ReflectionProbeUsage: 0
  m_RenderingLayerMask: 1
  m_RendererPriority: 0
  m_Materials:
  - {fileID: 10754, guid: 0000000000000000f000000000000000, type: 0}
  m_StaticBatchInfo:
    firstSubMesh: 0
    subMeshCount: 0
  m_StaticBatchRoot: {fileID: 0}
  m_ProbeAnchor: {fileID: 0}
  m_LightProbeVolumeOverride: {fileID: 0}
  m_ScaleInLightmap: 1
  m_PreserveUVs: 0
  m_IgnoreNormalsForChartDetection: 0
  m_ImportantGI: 0
  m_StitchLightmapSeams: 0
  m_SelectedEditorRenderState: 0
  m_MinimumChartSize: 4
  m_AutoUVMaxDistance: 0.5
  m_AutoUVMaxAngle: 89
  m_LightmapParameters: {fileID: 0}
  m_SortingLayerID: 0
  m_SortingLayer: 0
  m_SortingOrder: 0
  m_ChunkSize: {x: 32, y: 32, z: 32}
  m_ChunkCullingBounds: {x: 0, y: 0, z: 0}
  m_MaxChunkCount: 16
  m_MaxFrameAge: 16
  m_SortOrder: 0
  m_Mode: 0
  m_DetectChunkCullingBounds: 0
  m_MaskInteraction: 0
--- !u!114 &114652519273136200
MonoBehaviour:
  m_ObjectHideFlags: 0
  m_CorrespondingSourceObject: {fileID: 0}
  m_PrefabInstance: {fileID: 0}
  m_PrefabAsset: {fileID: 0}
  m_GameObject: {fileID: 0}
  m_Enabled: 1
  m_EditorHideFlags: 0
  m_Script: {fileID: 12395, guid: 0000000000000000e000000000000000, type: 0}
  m_Name: Palette Settings
  m_EditorClassIdentifier: 
  cellSizing: 0
